Totals,,,,,,,,,,,
,,,,,,,,,,,notes
Total Transactions,428,,,,,,,,,,
Total Transaction Value,-1266.3,,,,,,,,,,
Invoices Sent,220,,,,,,,,,,
Total Invoiced,38646.7,,,,,,,,,,
Payments And Deposits,205,,,,,,,,,,
Payment And Deposit Value,-40736,,,,,,,,,,
Refunded Payment And Deposit Value,823,,,,,,,,,,
,,,,,,,,,,,
client_name,date,type,total,note,check_,invoice,method,transaction,employee,received,
SD Beach House Rentals,10/05/2019,Payment,-240,Payment applied to Invoice #2359,,2359,Jobber Payments,ch_1FQCJIKXLQIAg16LnxBO268p,,,
Ben  Lo,10/05/2019,Payment,-160,Payment applied to Invoice #2358,,2358,Jobber Payments,ch_1FQCFUKXLQIAg16Leo1S5HOC,,,
Livkraft,10/05/2019,Payment,-288,Payment applied to Invoice #2357,,2357,Jobber Payments,ch_1FQCD4KXLQIAg16LsQa0pddO,,,
Diana Stafford,10/05/2019,Payment,-223,Payment applied to Invoice #2356,,2356,Jobber Payments,ch_1FQC7vKXLQIAg16Ls209RMyJ,,,
Diana Stafford,10/05/2019,Invoice,223,,,2356,,,,,
Livkraft,10/05/2019,Invoice,288,,,2357,,,,,
Ben  Lo,10/05/2019,Invoice,160,,,2358,,,,,
SD Beach House Rentals,10/05/2019,Invoice,240,,,2359,,,,,
Ryan  Wheeler,10/04/2019,Payment,-70,Payment applied to Invoice #2355,,2355,Jobber Payments,ch_1FPyQTKXLQIAg16LUtc3w1j2,,,
Cody Giambrone,10/04/2019,Payment,-202,Payment applied to Invoice #2353,,2353,Jobber Payments,ch_1FPvUYKXLQIAg16LxojxLTdK,,,
Larissa  Thunder,10/04/2019,Payment,-145,Payment applied to Invoice #2348,,2348,Jobber Payments,ch_1FPtyKKXLQIAg16LzS3NXgSr,,,
Karissa Anthony,10/04/2019,Payment,-130,Payment applied to Invoice #2347,,2347,Jobber Payments,ch_1FPtxmKXLQIAg16LCYmPp4Dy,,,
IVS Group / Muse,10/04/2019,Payment,-684,Payment applied to Invoice #2321,,2321,Jobber Payments,ch_1FPtQwKXLQIAg16LtLLWCFzP,,,
Karissa Anthony,10/04/2019,Invoice,130,,,2347,,,,,
Larissa  Thunder,10/04/2019,Invoice,145,,,2348,,,,,
Chef Pharrell  Worthylake,10/04/2019,Invoice,120,,,2349,,,,,
Chef Pharrell  Worthylake,10/04/2019,Payment,-120,Payment applied to Invoice #2349 with Cindy,,2349,Cash,,,,
Patrick Yousif,10/04/2019,Invoice,488,,,2350,,,,,
Quinn Myers,10/04/2019,Invoice,70,,,2351,,,,,
Bluewater,10/04/2019,Invoice,375,,,2352,,,,,
Cody Giambrone,10/04/2019,Invoice,202,,,2353,,,,,
Bluewater,10/04/2019,Payment,"-1,030.00",,5180,,Check,,,,
Bradford McMahan,10/04/2019,Invoice,267,,,2354,,,,,
Bradford McMahan,10/04/2019,Payment,-267,Payment applied to Invoice #2354 with Cindy,156,2354,Check,,,,
Ryan  Wheeler,10/04/2019,Invoice,70,,,2355,,,,,
Connor  Georgantos,10/03/2019,Payment,-50,Payment applied to Invoice #2346,,2346,Jobber Payments,ch_1FPfOTKXLQIAg16LQvHBk0dO,,,
Ben  Ruth,10/03/2019,Payment,-149,Payment applied to Invoice #2343,,2343,Jobber Payments,ch_1FPTJ8KXLQIAg16L8Dgq7Klv,,,
Yinghan Wang,10/03/2019,Payment,-90,Payment applied to Invoice #2342,,2342,Jobber Payments,ch_1FPTHCKXLQIAg16LL0ty4CFI,,,
Stephanie  Johnson,10/03/2019,Payment,-192,Payment applied to Invoice #2341,,2341,Jobber Payments,ch_1FPTCHKXLQIAg16LPhQkQV3r,,,
Stephanie  Johnson,10/03/2019,Invoice,192,,,2341,,,,,
Yinghan Wang,10/03/2019,Invoice,90,,,2342,,,,,
Ben  Ruth,10/03/2019,Invoice,149,,,2343,,,,,
Lana Nystom,10/03/2019,Invoice,110,,,2344,,,,,
Tabaitha Harcum,10/03/2019,Invoice,120,,,2345,,,,,
Tabaitha Harcum,10/03/2019,Payment,-120,Payment applied to Invoice #2345 with Ceissa,,2345,Cash,,,,
Connor  Georgantos,10/03/2019,Invoice,50,,,2346,,,,,
Juan Esteban  Tapiero Bernal,10/02/2019,Payment,-108,Payment applied to Invoice #2340,,2340,Jobber Payments,ch_1FPCuSKXLQIAg16LNowLbuDj,,,
Rebecca Tilt,10/02/2019,Payment,-100,Payment applied to Invoice #2339,,2339,Jobber Payments,ch_1FP7FmKXLQIAg16LFTARLDSe,,,
Angel Kohls,10/02/2019,Payment,-224,Payment applied to Invoice #2338,,2338,Jobber Payments,ch_1FP7DUKXLQIAg16LtLPcC4Ie,,,
Tara Weber,10/02/2019,Payment,-103,Payment applied to Invoice #2336,,2336,Jobber Payments,ch_1FP706KXLQIAg16Ldi8ks2iD,,,
Tara Weber,10/02/2019,Invoice,103,,,2336,,,,,
Bluewater,10/02/2019,Invoice,280,,,2337,,,,,
Angel Kohls,10/02/2019,Invoice,224,,,2338,,,,,
Rebecca Tilt,10/02/2019,Invoice,100,,,2339,,,,,
Juan Esteban  Tapiero Bernal,10/02/2019,Invoice,108,,,2340,,,,,
Ryan  Wheeler,10/01/2019,Payment,-70,Payment applied to Invoice #2335,,2335,Jobber Payments,ch_1FOt5XKXLQIAg16LgRZCJVGo,,,
Anita Fargo,10/01/2019,Payment,-355,Payment applied to Invoice #2334,,2334,Jobber Payments,ch_1FOt4iKXLQIAg16LamE6IFCm,,,
Fernando  McCamant,10/01/2019,Payment,-136,Payment applied to Invoice #2333,,2333,Jobber Payments,ch_1FOswyKXLQIAg16LKSFOY30s,,,
Kara  M. Cabados,10/01/2019,Payment,-174,Payment applied to Invoice #2299,,2299,Jobber Payments,ch_1FOqKtKXLQIAg16LIeKJPGfH,,,
Livkraft,10/01/2019,Payment,-192,Payment applied to Invoice #2331,,2331,Jobber Payments,ch_1FOkDBKXLQIAg16LomnxBs5h,,,
John  Anton,10/01/2019,Payment,-136,Payment applied to Invoice #2330,,2330,Jobber Payments,ch_1FOkBTKXLQIAg16LOJnCnSuV,,,
Karissa Anthony,10/01/2019,Payment,-130,Payment applied to Invoice #2329,,2329,Jobber Payments,ch_1FOk7eKXLQIAg16LuRluV2Nl,,,
Karissa Anthony,10/01/2019,Invoice,130,,,2329,,,,,
John  Anton,10/01/2019,Invoice,136,,,2330,,,,,
Livkraft,10/01/2019,Invoice,192,,,2331,,,,,
Cynthia  Bryant,10/01/2019,Invoice,238,,,2332,,,,,
Cynthia  Bryant,10/01/2019,Payment,-238,Payment applied to Invoice #2332 by Stripe,,2332,Credit Card,,,,
Fernando  McCamant,10/01/2019,Invoice,136,,,2333,,,,,
Anita Fargo,10/01/2019,Invoice,355,,,2334,,,,,
Ryan  Wheeler,10/01/2019,Invoice,70,,,2335,,,,,
Salma Navarette,09/30/2019,Payment,-165,Payment applied to Invoice #2328,,2328,Jobber Payments,ch_1FOb5FKXLQIAg16LVlj6Q3fn,,,
Kathy Cattedra,09/30/2019,Payment,-230,Payment applied to Invoice #2327,,2327,Jobber Payments,ch_1FOYAvKXLQIAg16L4UMHvvo4,,,
Yinghan Wang,09/30/2019,Payment,-90,Payment applied to Invoice #2326,,2326,Jobber Payments,ch_1FOYAIKXLQIAg16LNgTLAj7x,,,
SD Beach House Rentals,09/30/2019,Payment,-90,Payment applied to Invoice #2323,,2323,Jobber Payments,ch_1FOUoOKXLQIAg16LNzzRjLa7,,,
Fedra  Uribe,09/30/2019,Payment,-50,Payment applied to Invoice #2319,,2319,Jobber Payments,ch_1FOTlGKXLQIAg16Lzh3ZS40B,,,
Debra  Willians,09/30/2019,Payment,-49,Payment applied to Invoice #2320,,2320,Jobber Payments,ch_1FOTimKXLQIAg16L2OcNMrJV,,,
Lana Nystom,09/30/2019,Payment,-110,Payment applied to Invoice #2291,,2291,Jobber Payments,ch_1FOSFaKXLQIAg16LYPbd9E7u,,,
Mary Halub,09/30/2019,Payment,-299,Payment applied to Invoice #2317,,2317,Jobber Payments,ch_1FOOmOKXLQIAg16LkeM73xta,,,
Ryan  Wheeler,09/30/2019,Payment,-70,Payment applied to Invoice #2316,,2316,Jobber Payments,ch_1FOOk7KXLQIAg16LBPsmVhzZ,,,
Stephen  Boyer,09/30/2019,Payment,-272,Payment applied to Invoice #2315,,2315,Jobber Payments,ch_1FOOhiKXLQIAg16LlxKXoAyh,,,
Chris  Shoup,09/30/2019,Payment,-204,Payment applied to Invoice #2314,,2314,Jobber Payments,ch_1FOOgVKXLQIAg16Ld2ScgEdi,,,
Yinghan Wang,09/30/2019,Payment,-105,Payment applied to Invoice #2313,,2313,Jobber Payments,ch_1FOOfAKXLQIAg16LWnypAfQM,,,
Hunter  Wright,09/30/2019,Payment,-96,Payment applied to Invoice #2312,,2312,Jobber Payments,ch_1FOOaZKXLQIAg16L4rRVst63,,,
William  Rivers,09/30/2019,Payment,-134,Payment applied to Invoice #2311,,2311,Jobber Payments,ch_1FOOVjKXLQIAg16L7bbYbkDu,,,
William  Rivers,09/30/2019,Invoice,134,,,2311,,,,,
Hunter  Wright,09/30/2019,Invoice,96,,,2312,,,,,
Yinghan Wang,09/30/2019,Invoice,105,,,2313,,,,,
Chris  Shoup,09/30/2019,Invoice,204,,,2314,,,,,
Stephen  Boyer,09/30/2019,Invoice,272,,,2315,,,,,
Ryan  Wheeler,09/30/2019,Invoice,70,,,2316,,,,,
Mary Halub,09/30/2019,Invoice,299,,,2317,,,,,
Quinn Myers,09/30/2019,Invoice,70,,,2318,,,,,
Debra  Willians,09/30/2019,Invoice,49,,,2320,,,,,
Fedra  Uribe,09/30/2019,Invoice,50,,,2319,,,,,
IVS Group / Muse,09/30/2019,Invoice,684,,,2321,,,,,
Muse Owners Association,09/30/2019,Invoice,"2,488.00",,,2322,,,,,
SD Beach House Rentals,09/30/2019,Invoice,90,,,2323,,,,,
Quinn Myers,09/30/2019,Invoice,43.75,,,2324,,,,,
Quinn Myers,09/30/2019,Invoice,43.75,,,2325,,,,,
Yinghan Wang,09/30/2019,Invoice,90,,,2326,,,,,
Kathy Cattedra,09/30/2019,Invoice,230,,,2327,,,,,
Salma Navarette,09/30/2019,Invoice,169,,,2328,,,,,
Jennifer Elrod,09/28/2019,Payment,-132,Payment applied to Invoice #2310,,2310,Jobber Payments,ch_1FNmZNKXLQIAg16LiIhLooSQ,,,
Richard  Woods,09/28/2019,Payment,-105,Payment applied to Invoice #2309,,2309,Jobber Payments,ch_1FNmXdKXLQIAg16Lf7ANbkTD,,,
SD Beach House Rentals,09/28/2019,Payment,-180,Payment applied to Invoice #2308,,2308,Jobber Payments,ch_1FNmWqKXLQIAg16LGTGGktjx,,,
Manasvi  Sridhar,09/28/2019,Payment,-84,Payment applied to Invoice #2307,,2307,Jobber Payments,ch_1FNmVqKXLQIAg16LclMy8w3M,,,
Pamela Meyers,09/28/2019,Payment,-161,Payment applied to Invoice #2306,,2306,Jobber Payments,ch_1FNmUyKXLQIAg16L6xhD9Cyu,,,
Dave  Hartzell,09/28/2019,Payment,-102,Payment applied to Invoice #2305,,2305,Jobber Payments,ch_1FNmTVKXLQIAg16L3PBjsqEV,,,
Livkraft,09/28/2019,Payment,-288,Payment applied to Invoice #2304,,2304,Jobber Payments,ch_1FNegMKXLQIAg16LRVSSnPGU,,,
Livkraft,09/28/2019,Invoice,288,,,2304,,,,,
Dave  Hartzell,09/28/2019,Invoice,102,,,2305,,,,,
Pamela Meyers,09/28/2019,Invoice,161,,,2306,,,,,
Manasvi  Sridhar,09/28/2019,Invoice,84,,,2307,,,,,
SD Beach House Rentals,09/28/2019,Invoice,180,,,2308,,,,,
Richard  Woods,09/28/2019,Invoice,105,,,2309,,,,,
Jennifer Elrod,09/28/2019,Invoice,132,,,2310,,,,,
Jesse  Guerra,09/27/2019,Payment,-224,Payment applied to Invoice #2303,,2303,Jobber Payments,ch_1FNSPxKXLQIAg16LOgTds0VG,,,
Vanessa  Collier,09/27/2019,Payment,-365,Payment applied to Invoice #2302,,2302,Jobber Payments,ch_1FNQRyKXLQIAg16Lppu0Vpbt,,,
Steve  Connolly,09/27/2019,Payment,-102,Payment applied to Invoice #2301,,2301,Jobber Payments,ch_1FNQ2OKXLQIAg16LEwKOwtJs,,,
Chad  Preim,09/27/2019,Payment,-263,Payment applied to Invoice #2300,,2300,Jobber Payments,ch_1FNPL7KXLQIAg16L2QFBRyT9,,,
Karissa Anthony,09/27/2019,Payment,-130,Payment applied to Invoice #2297,,2297,Jobber Payments,ch_1FNIaUKXLQIAg16LJ5ctaLQo,,,
SD Beach House Rentals,09/27/2019,Payment,-240,Payment applied to Invoice #2296,,2296,Jobber Payments,ch_1FNISAKXLQIAg16LSY7EiSxc,,,
SD Beach House Rentals,09/27/2019,Invoice,240,,,2296,,,,,
Karissa Anthony,09/27/2019,Invoice,130,,,2297,,,,,
Chef Pharrell  Worthylake,09/27/2019,Invoice,40,,,2298,,,,,
Chef Pharrell  Worthylake,09/27/2019,Payment,-40,Payment applied to Invoice #2298- 100 with Cindy,,2298,Cash,,,,
Kara  M. Cabados,09/27/2019,Invoice,174,,,2299,,,,,
Chad  Preim,09/27/2019,Invoice,263,,,2300,,,,,
Steve  Connolly,09/27/2019,Invoice,102,,,2301,,,,,
Vanessa  Collier,09/27/2019,Invoice,365,,,2302,,,,,
Jesse  Guerra,09/27/2019,Invoice,224,,,2303,,,,,
Larissa  Thunder,09/26/2019,Payment,-145,Payment applied to Invoice #2295,,2295,Jobber Payments,ch_1FN4iKKXLQIAg16LTjuCpYrp,,,
David  Park,09/26/2019,Payment,-96,Payment applied to Invoice #2293,,2293,Jobber Payments,ch_1FN0CtKXLQIAg16L415dpdAe,,,
David  Park,09/26/2019,Invoice,96,,,2293,,,,,
Kripa Liniradur,09/26/2019,Invoice,150,,,2294,,,,,
Kripa Liniradur,09/26/2019,Payment,-150,Payment applied to Invoice #2294 with Taina,260,2294,Check,,,,
Larissa  Thunder,09/26/2019,Invoice,145,,,2295,,,,,
Yinghan Wang,09/25/2019,Payment,-90,Payment applied to Invoice #2292,,2292,Jobber Payments,ch_1FMjqJKXLQIAg16LdBC40B1K,,,
John Martin,09/25/2019,Payment,-221,Payment applied to Invoice #2288,,2288,Jobber Payments,ch_1FMgQZKXLQIAg16LbMkUY2Fm,,,
SD Beach House Rentals,09/25/2019,Payment,-240,Payment applied to Invoice #2286,,2286,Jobber Payments,ch_1FMavdKXLQIAg16LUNz3HFxV,,,
Rebecca Tilt,09/25/2019,Payment,-115,Payment applied to Invoice #2285,,2285,Jobber Payments,ch_1FMahvKXLQIAg16L7RJbBLL0,,,
SD Beach House Rentals,09/25/2019,Payment,-105,Payment applied to Invoice #2284,,2284,Jobber Payments,ch_1FMae2KXLQIAg16Ly0vzNRRE,,,
Sandra Page,09/25/2019,Payment,-200,Payment applied to Invoice #2283,,2283,Jobber Payments,ch_1FMabEKXLQIAg16Lnpwv7th0,,,
Carole Bernstei,09/25/2019,Payment,-90,Payment applied to Invoice #2282,,2282,Jobber Payments,ch_1FMaY6KXLQIAg16LPsfCTGG0,,,
Tracy  Littlefield,09/25/2019,Payment,-288,Payment applied to Invoice #2281,,2281,Jobber Payments,ch_1FMaWPKXLQIAg16L7zEY6e41,,,
Fernando  McCamant,09/25/2019,Payment,-136,Payment applied to Invoice #2280,,2280,Jobber Payments,ch_1FMaU9KXLQIAg16L5v1XydoW,,,
Fernando  McCamant,09/25/2019,Invoice,136,,,2280,,,,,
Tracy  Littlefield,09/25/2019,Invoice,288,,,2281,,,,,
Carole Bernstei,09/25/2019,Invoice,90,,,2282,,,,,
Sandra Page,09/25/2019,Invoice,200,,,2283,,,,,
SD Beach House Rentals,09/25/2019,Invoice,105,,,2284,,,,,
Rebecca Tilt,09/25/2019,Invoice,115,,,2285,,,,,
SD Beach House Rentals,09/25/2019,Invoice,240,,,2286,,,,,
Joyce  Tsai,09/25/2019,Invoice,100,,,2287,,,,,
Joyce  Tsai,09/25/2019,Payment,-100,Payment applied to Invoice #2287 with Cindy,1.24E+22,2287,Check,,,,
John Martin,09/25/2019,Invoice,221,,,2288,,,,,
Quinn Myers,09/25/2019,Invoice,70,,,2289,,,,,
Myra  Lizerbram,09/25/2019,Invoice,80,,,2290,,,,,
Myra  Lizerbram,09/25/2019,Payment,-80,Payment applied to Invoice #2290 with Claudia,143,2290,Check,,,,
Lana Nystom,09/25/2019,Invoice,110,,,2291,,,,,
Yinghan Wang,09/25/2019,Invoice,90,,,2292,,,,,
Livkraft,09/24/2019,Payment,-192,Payment applied to Invoice #2279,,2279,Jobber Payments,ch_1FML4oKXLQIAg16LlXRqieIG,,,
Angela  Silva,09/24/2019,Payment,-199,Payment applied to Invoice #2277,,2277,Jobber Payments,ch_1FMIuEKXLQIAg16LjcdKETu3,,,
Chris Williamson,09/24/2019,Payment,-187,Payment applied to Invoice #2276,,2276,Jobber Payments,ch_1FMD90KXLQIAg16L5IegK9ms,,,
Chris Williamson,09/24/2019,Invoice,187,,,2276,,,,,
Angela  Silva,09/24/2019,Invoice,199,,,2277,,,,,
Ellen Li Peishan,09/24/2019,Invoice,240,,,2278,,,,,
Ellen Li Peishan,09/24/2019,Payment,-240,Payment applied to Invoice #2278 check with Thais,3.14E+21,2278,Check,,,,
Livkraft,09/24/2019,Invoice,192,,,2279,,,,,
Kathy Cattedra,09/23/2019,Payment,-230,Payment applied to Invoice #2274,,2274,Jobber Payments,ch_1FM0yJKXLQIAg16LgyTPLEo3,,,
Karissa Anthony,09/23/2019,Payment,-130,Payment applied to Invoice #2273,,2273,Jobber Payments,ch_1FM0wtKXLQIAg16Lj8BKCqds,,,
Debra  Willians,09/23/2019,Payment,-49,Payment applied to Invoice #2271,,2271,Jobber Payments,ch_1FLwlzKXLQIAg16LDMryfEs7,,,
Fusion Property Management,09/23/2019,Payment,-96,Payment applied to Invoice #2270,,2270,Jobber Payments,ch_1FLwkVKXLQIAg16LOvzVskn1,,,
Amira  Sheikh,09/23/2019,Payment,-170,Payment applied to Invoice #2269,,2269,Jobber Payments,ch_1FLwLMKXLQIAg16LEkjeQZRT,,,
Rebecca Tilt,09/23/2019,Payment,-35,Payment applied to Invoice #2268,,2268,Jobber Payments,ch_1FLwJKKXLQIAg16LKkvllRQj,,,
Yinghan Wang,09/23/2019,Payment,-90,Payment applied to Invoice #2267,,2267,Jobber Payments,ch_1FLr6UKXLQIAg16LRflamJpm,,,
Margaret  Hooker,09/23/2019,Payment,-204,Payment applied to Invoice #2265,,2265,Jobber Payments,ch_1FLqfPKXLQIAg16LDnDbEctL,,,
Hunter  Wright,09/23/2019,Payment,-96,Payment applied to Invoice #2263,,2263,Jobber Payments,ch_1FLqVjKXLQIAg16Lo5v0TJIJ,,,
Hunter  Wright,09/23/2019,Invoice,96,,,2263,,,,,
Gary W  Bahnmiller,09/23/2019,Payment,0,Payment applied to Invoice #2264i guarantee,,,Cash,,,,
Margaret  Hooker,09/23/2019,Invoice,204,,,2265,,,,,
Bluewater,09/23/2019,Invoice,375,,,2266,,,,,
Yinghan Wang,09/23/2019,Invoice,90,,,2267,,,,,
Rebecca Tilt,09/23/2019,Invoice,35,,,2268,,,,,
Amira  Sheikh,09/23/2019,Invoice,170,,,2269,,,,,
Fusion Property Management,09/23/2019,Invoice,96,,,2270,,,,,
Debra  Willians,09/23/2019,Invoice,49,,,2271,,,,,
Quinn Myers,09/23/2019,Invoice,70,,,2272,,,,,
Karissa Anthony,09/23/2019,Invoice,130,,,2273,,,,,
Kathy Cattedra,09/23/2019,Invoice,230,,,2274,,,,,
Bluewater,09/23/2019,Invoice,280,,,2275,,,,,
Bluewater,09/23/2019,Payment,-280,Payment applied to Invoice #2217,5174,2217,Check,,,,
Gary W  Bahnmiller,09/22/2019,Payment,-358,Payment applied to Invoice #2262,,2262,Jobber Payments,ch_1FLZrzKXLQIAg16L78dQrXJV,,,
SD Beach House Rentals,09/22/2019,Payment,-240,Payment applied to Invoice #2261,,2261,Jobber Payments,ch_1FLXdAKXLQIAg16LKITnjlqc,,,
SD Beach House Rentals,09/22/2019,Invoice,240,,,2261,,,,,
Gary W  Bahnmiller,09/22/2019,Invoice,358,,,2262,,,,,
Mark  Thorsen,09/21/2019,Payment,-96,Payment applied to Invoice #2260,,2260,Jobber Payments,ch_1FLGgLKXLQIAg16LQeVOFreR,,,
Lynn  Goodfellow,09/21/2019,Payment,-217,Payment applied to Invoice #2259,,2259,Jobber Payments,ch_1FLGeoKXLQIAg16LSUT5nkfD,,,
Donald  Ollier,09/21/2019,Payment,-150,Payment applied to Invoice #2258,,2258,Jobber Payments,ch_1FLFsEKXLQIAg16LRuOtKPId,,,
Christina Nguyen,09/21/2019,Payment,-146,Payment applied to Invoice #2257,,2257,Jobber Payments,ch_1FLFo7KXLQIAg16L5ST0WOOM,,,
Lana Nystom,09/21/2019,Payment,-110,Payment applied to Invoice #2256,,2256,Jobber Payments,ch_1FLEO3KXLQIAg16LGvbLUYO4,,,
Marie  Sweeney,09/21/2019,Refund,408,,,,Jobber Payments,re_1FLB2aKXLQIAg16L0CJkVkVU,,,
Livkraft,09/21/2019,Payment,-288,Payment applied to Invoice #2255,,2255,Jobber Payments,ch_1FLAakKXLQIAg16LZPKwSirR,,,
Livkraft,09/21/2019,Invoice,288,,,2255,,,,,
Marie  Sweeney,09/21/2019,Payment,-408,Payment applied to Invoice #2248 with Flavio,3788,2248,Check,,,,
Lana Nystom,09/21/2019,Invoice,110,,,2256,,,,,
Christina Nguyen,09/21/2019,Invoice,146,,,2257,,,,,
Donald  Ollier,09/21/2019,Invoice,150,,,2258,,,,,
Lynn  Goodfellow,09/21/2019,Invoice,217,,,2259,,,,,
Mark  Thorsen,09/21/2019,Invoice,96,,,2260,,,,,
Ashish  Patel,09/20/2019,Payment,-35,Payment applied to Invoice #2254,,2254,Jobber Payments,ch_1FKwYPKXLQIAg16LbxYB9sdT,,,
Alex B  Johnson,09/20/2019,Payment,-119,Payment applied to Invoice #2253,,2253,Jobber Payments,ch_1FKvTlKXLQIAg16LiIaztAf5,,,
Ben  Lo,09/20/2019,Payment,-160,Payment applied to Invoice #2252,,2252,Jobber Payments,ch_1FKuuzKXLQIAg16LIY2DzpP4,,,
Nyere K   Palmer,09/20/2019,Payment,-355,Payment applied to Invoice #2251,,2251,Jobber Payments,ch_1FKtoSKXLQIAg16LyD7fzvlN,,,
Lisa  Motinko,09/20/2019,Payment,-102,Payment applied to Invoice #2250,,2250,Jobber Payments,ch_1FKtkTKXLQIAg16LMMx1tFeq,,,
Lisa  Nichols,09/20/2019,Payment,-140,Payment applied to Invoice #2249,,2249,Jobber Payments,ch_1FKm67KXLQIAg16LlFIbpoZk,,,
Marie  Sweeney,09/20/2019,Payment (Refunded),-408,Payment applied to Invoice #2248,,,Jobber Payments,ch_1FKm3gKXLQIAg16LU6MgoDOS,,,
SD Beach House Rentals,09/20/2019,Payment,-180,Payment applied to Invoice #2247,,2247,Jobber Payments,ch_1FKm27KXLQIAg16L2xctL4fW,,,
Kevin  Gregory,09/20/2019,Payment,-268,Payment applied to Invoice #2246,,2246,Jobber Payments,ch_1FKm0KKXLQIAg16LMERgpW4N,,,
Karissa Anthony,09/20/2019,Payment,-130,Payment applied to Invoice #2245,,2245,Jobber Payments,ch_1FKlyTKXLQIAg16LWFpbMkdE,,,
Karissa Anthony,09/20/2019,Invoice,130,,,2245,,,,,
Kevin  Gregory,09/20/2019,Invoice,268,,,2246,,,,,
SD Beach House Rentals,09/20/2019,Invoice,180,,,2247,,,,,
Marie  Sweeney,09/20/2019,Invoice,408,,,2248,,,,,
Lisa  Nichols,09/20/2019,Invoice,140,,,2249,,,,,
Lisa  Motinko,09/20/2019,Invoice,102,,,2250,,,,,
Nyere K   Palmer,09/20/2019,Invoice,355,,,2251,,,,,
Ben  Lo,09/20/2019,Invoice,160,,,2252,,,,,
Alex B  Johnson,09/20/2019,Invoice,119,,,2253,,,,,
Ashish  Patel,09/20/2019,Invoice,35,,,2254,,,,,
SD Beach House Rentals,09/19/2019,Payment,-105,Payment applied to Invoice #2243,,2243,Jobber Payments,ch_1FKWh0KXLQIAg16L2KVO4b5K,,,
Larissa  Thunder,09/19/2019,Payment,-145,Payment applied to Invoice #2241,,2241,Jobber Payments,ch_1FKWQXKXLQIAg16L03XAdLIa,,,
Yinghan Wang,09/19/2019,Payment,-90,Payment applied to Invoice #2240,,2240,Jobber Payments,ch_1FKP8dKXLQIAg16La6zEhvql,,,
Rebecca Tilt,09/19/2019,Payment,-100,Payment applied to Invoice #2239,,2239,Jobber Payments,ch_1FKOrpKXLQIAg16L4QWuoXnP,,,
David Devereaux,09/19/2019,Payment,-318,Payment applied to Invoice #2238,,2238,Jobber Payments,ch_1FKOcAKXLQIAg16LUCQMnxiV,,,
Emily  Straffin,09/19/2019,Payment,-169,Payment applied to Invoice #2237,,2237,Jobber Payments,ch_1FKOaGKXLQIAg16LgJZ8iD7z,,,
Myra  Lizerbram,09/19/2019,Invoice,80,,,2236,,,,,
Myra  Lizerbram,09/19/2019,Payment,-80,Payment applied to Invoice #2236 with Claudia,3.22E+24,2236,Check,,,,
Emily  Straffin,09/19/2019,Invoice,169,,,2237,,,,,
David Devereaux,09/19/2019,Invoice,318,,,2238,,,,,
Rebecca Tilt,09/19/2019,Invoice,100,,,2239,,,,,
Yinghan Wang,09/19/2019,Invoice,90,,,2240,,,,,
Larissa  Thunder,09/19/2019,Invoice,145,,,2241,,,,,
Jeanine Bonvin,09/19/2019,Invoice,69,,,2242,,,,,
Jeanine Bonvin,09/19/2019,Payment,-69,Payment applied to Invoice #2242 with Taina,1.11E+22,2242,Check,,,,
SD Beach House Rentals,09/19/2019,Invoice,105,,,2243,,,,,
Chef Pharrell  Worthylake,09/19/2019,Payment,-120,Payment applied to Invoice #2244 collected by Cindy and Claudia,,2244,Cash,,,,
Chef Pharrell  Worthylake,09/19/2019,Invoice,120,,,2244,,,,,
John  Tyler,09/18/2019,Payment,-50,Payment applied to Invoice #2235,,2235,Jobber Payments,ch_1FK95eKXLQIAg16LTxzUBjan,,,
Juan Esteban  Tapiero Bernal,09/18/2019,Payment,-108,Payment applied to Invoice #2233,,2233,Jobber Payments,ch_1FK8pGKXLQIAg16L8DrILymO,,,
Karen Lunt,09/18/2019,Payment,-35,Payment applied to Invoice #2232,,2232,Jobber Payments,ch_1FK5KaKXLQIAg16LjfIWQPRj,,,
Karen Lunt,09/18/2019,Invoice,35,,,2232,,,,,
Juan Esteban  Tapiero Bernal,09/18/2019,Invoice,108,,,2233,,,,,
Julie  McCarty,09/18/2019,Invoice,224,,,2234,,,,,
John  Tyler,09/18/2019,Invoice,50,,,2235,,,,,
Fernando  McCamant,09/17/2019,Payment,-136,Payment applied to Invoice #2231,,2231,Jobber Payments,ch_1FJoiHKXLQIAg16LMEd0ffMg,,,
Amy Garczynsk,09/17/2019,Payment,-209,Payment applied to Invoice #2228,,2228,Jobber Payments,ch_1FJmuJKXLQIAg16LZxyklTc0,,,
Livkraft,09/17/2019,Payment,-192,Payment applied to Invoice #2227,,2227,Jobber Payments,ch_1FJjt8KXLQIAg16LHDfDVvsP,,,
Karissa Anthony,09/17/2019,Payment,-130,Payment applied to Invoice #2226,,2226,Jobber Payments,ch_1FJiyVKXLQIAg16LZKkKXHUt,,,
Karissa Anthony,09/17/2019,Invoice,130,,,2226,,,,,
Livkraft,09/17/2019,Invoice,192,,,2227,,,,,
Amy Garczynsk,09/17/2019,Invoice,209,,,2228,,,,,
Quinn Myers,09/17/2019,Invoice,43.7,,,2229,,,,,
Quinn Myers,09/17/2019,Invoice,43.5,,,2230,,,,,
Fernando  McCamant,09/17/2019,Invoice,136,,,2231,,,,,
Bluewater,09/17/2019,Payment,"-1,030.00",,5155,,Check,,,,
Bluewater,09/17/2019,Payment,-398,,5157,,Check,,,,
Jeffrey Chim,09/16/2019,Refund,175,,,,Jobber Payments,re_1FJTpmKXLQIAg16LPKRiCS4Z,,,
Kathy Cattedra,09/16/2019,Payment,-230,Payment applied to Invoice #2224,,2224,Jobber Payments,ch_1FJSrsKXLQIAg16LM2bYPPnT,,,
Debra  Willians,09/16/2019,Payment,-49,Payment applied to Invoice #2222,,2222,Jobber Payments,ch_1FJQHrKXLQIAg16LtlQNVfsI,,,
Sandra Page,09/16/2019,Payment,-700,Payment applied to Invoice #2205,,2205,Jobber Payments,ch_1FJN1lKXLQIAg16LxLh23043,,,
Tamara Nelson,09/16/2019,Payment,-128,Payment applied to Invoice #2221,,2221,Jobber Payments,ch_1FJMWlKXLQIAg16LpjVa6KqV,,,
Yinghan Wang,09/16/2019,Payment,-90,Payment applied to Invoice #2220,,2220,Jobber Payments,ch_1FJMOiKXLQIAg16LYarlBKYW,,,
Jonathan Schneider,09/16/2019,Payment,-221,Payment applied to Invoice #2216,,2216,Jobber Payments,ch_1FJMNTKXLQIAg16LY6S1saDD,,,
Hunter  Wright,09/16/2019,Payment,-96,Payment applied to Invoice #2215,,2215,Jobber Payments,ch_1FJMDcKXLQIAg16LSZmqDU0a,,,
Hunter  Wright,09/16/2019,Invoice,96,,,2215,,,,,
Jonathan Schneider,09/16/2019,Invoice,221,,,2216,,,,,
Bluewater,09/16/2019,Invoice,280,,,2217,,,,,
Quinn Myers,09/16/2019,Invoice,77.75,,,2218,,,,,
Quinn Myers,09/16/2019,Invoice,43.75,,,2219,,,,,
Yinghan Wang,09/16/2019,Invoice,90,,,2220,,,,,
Bluewater,09/16/2019,Payment,-280,Payment applied to Invoice #2052,5117,2052,Check,,,,
Tamara Nelson,09/16/2019,Invoice,128,,,2221,,,,,
Iboss,09/16/2019,Payment,-105,Payment applied to Invoice #2153,4327,2153,Check,,,,
Muse Owners Association,09/16/2019,Payment,"-2,719.00",Payment applied to Invoice #2121,793,2121,Check,,,,
Debra  Willians,09/16/2019,Invoice,49,,,2222,,,,,
Bluewater,09/16/2019,Invoice,375,,,2223,,,,,
Kathy Cattedra,09/16/2019,Invoice,230,,,2224,,,,,
Richard  Woods,09/15/2019,Payment,-105,Payment applied to Invoice #2214,,2214,Jobber Payments,ch_1FJ5H9KXLQIAg16LY9jSqA2U,,,
SD Beach House Rentals,09/15/2019,Payment,-240,Payment applied to Invoice #2213,,2213,Jobber Payments,ch_1FJ5GQKXLQIAg16LXnZURyHU,,,
Abtin  Moeini,09/15/2019,Payment,-141,Payment applied to Invoice #2212,,2212,Jobber Payments,ch_1FJ5F7KXLQIAg16L7s1n6bo6,,,
Abtin  Moeini,09/15/2019,Invoice,141,,,2212,,,,,
SD Beach House Rentals,09/15/2019,Invoice,240,,,2213,,,,,
Richard  Woods,09/15/2019,Invoice,105,,,2214,,,,,
Pete Corso,09/14/2019,Payment,-238,Payment applied to Invoice #2211,,2211,Jobber Payments,ch_1FIjNJKXLQIAg16LbSWD3oyW,,,
Binfeng  Ding,09/14/2019,Payment,-204,Payment applied to Invoice #2210,,2210,Jobber Payments,ch_1FIirUKXLQIAg16Lv0PiQJlj,,,
Alvan Realty,09/14/2019,Payment,-136,Payment applied to Invoice #2209,,2209,Jobber Payments,ch_1FIiVRKXLQIAg16LUKB1GZv3,,,
Deanne  Jamison,09/14/2019,Payment,-102,Payment applied to Invoice #2208,,2208,Jobber Payments,ch_1FIiPsKXLQIAg16LrND8Td1L,,,
Jennifer Elrod,09/14/2019,Payment,-132,Payment applied to Invoice #2207,,2207,Jobber Payments,ch_1FIfbwKXLQIAg16LVLt7RZAB,,,
Giulia  Maimone,09/14/2019,Payment,-221,Payment applied to Invoice #2206,,2206,Jobber Payments,ch_1FIeUdKXLQIAg16LW9pipD8n,,,
Livkraft,09/14/2019,Payment,-288,Payment applied to Invoice #2203,,2203,Jobber Payments,ch_1FIe9dKXLQIAg16L9PbO16jN,,,
Livkraft,09/14/2019,Invoice,288,,,2203,,,,,
Terry Thompson,09/14/2019,Invoice,168,,,2204,,,,,
Terry Thompson,09/14/2019,Payment,-168,Payment applied to Invoice #2204 with Thais,,2204,Cash,,,,
Sandra Page,09/14/2019,Invoice,700,,,2205,,,,,
Giulia  Maimone,09/14/2019,Invoice,221,,,2206,,,,,
Jennifer Elrod,09/14/2019,Invoice,132,,,2207,,,,,
Deanne  Jamison,09/14/2019,Invoice,102,,,2208,,,,,
Alvan Realty,09/14/2019,Invoice,136,,,2209,,,,,
Binfeng  Ding,09/14/2019,Invoice,204,,,2210,,,,,
Pete Corso,09/14/2019,Invoice,238,,,2211,,,,,
Udo  Kerkfeld,09/13/2019,Payment,-427,Payment applied to Invoice #2202,,2202,Jobber Payments,ch_1FINkcKXLQIAg16LD5Bskqzz,,,
Hunter  Wright,09/13/2019,Payment,-35,Payment applied to Invoice #2201,,2201,Jobber Payments,ch_1FIMG7KXLQIAg16Lo5xOIT9b,,,
Yinghan Wang,09/13/2019,Payment,-90,Payment applied to Invoice #2199,,2199,Jobber Payments,ch_1FIJKYKXLQIAg16LB8LiZKmq,,,
Shira  Wiseman,09/13/2019,Payment,-85,Payment applied to Invoice #2198,,2198,Jobber Payments,ch_1FIJKAKXLQIAg16LKalZAs47,,,
Kathryn  Jenkins,09/13/2019,Payment,-149,Payment applied to Invoice #2197,,2197,Jobber Payments,ch_1FIJJrKXLQIAg16L8uE8O9eM,,,
Larissa  Thunder,09/13/2019,Payment,-145,Payment applied to Invoice #2195,,2195,Jobber Payments,ch_1FIJGlKXLQIAg16LMHZ2gU56,,,
James Schultz and Brigid Gehegan,09/13/2019,Payment,-196,Payment applied to Invoice #2194,,2194,Jobber Payments,ch_1FIJChKXLQIAg16LLWMTIs6p,,,
Tara Weber,09/13/2019,Payment,-103,Payment applied to Invoice #2193,,2193,Jobber Payments,ch_1FIJC2KXLQIAg16Lo0FuDBEY,,,
Michelle Rice,09/13/2019,Payment,-224,Payment applied to Invoice #2191,,2191,Jobber Payments,ch_1FIIx8KXLQIAg16LNQ5053Nw,,,
Karissa Anthony,09/13/2019,Payment,-130,Payment applied to Invoice #2190,,2190,Jobber Payments,ch_1FIItcKXLQIAg16L1qeOXJyq,,,
Karissa Anthony,09/13/2019,Invoice,130,,,2190,,,,,
Michelle Rice,09/13/2019,Invoice,224,,,2191,,,,,
Stacy  Therrien,09/13/2019,Invoice,110,,,2192,,,,,
Stacy  Therrien,09/13/2019,Payment,-110,Payment applied to Invoice #2192 with Rejane,1103,2192,Check,,,,
Tara Weber,09/13/2019,Invoice,103,,,2193,,,,,
James Schultz and Brigid Gehegan,09/13/2019,Invoice,196,,,2194,,,,,
Larissa  Thunder,09/13/2019,Invoice,145,,,2195,,,,,
Chef Pharrell  Worthylake,09/13/2019,Invoice,120,,,2196,,,,,
Chef Pharrell  Worthylake,09/13/2019,Payment,-120,Payment applied to Invoice #2196 with Cindy,,2196,Cash,,,,
Kathryn  Jenkins,09/13/2019,Invoice,149,,,2197,,,,,
Shira  Wiseman,09/13/2019,Invoice,85,,,2198,,,,,
Yinghan Wang,09/13/2019,Invoice,90,,,2199,,,,,
Quinn Myers,09/13/2019,Invoice,70,,,2200,,,,,
Hunter  Wright,09/13/2019,Invoice,35,,,2201,,,,,
Udo  Kerkfeld,09/13/2019,Invoice,427,,,2202,,,,,
Manasvi  Sridhar,09/12/2019,Payment,-84,Payment applied to Invoice #2096,,2096,Jobber Payments,ch_1FHvd3KXLQIAg16LvPM3XWQy,,,
Karen Lunt,09/12/2019,Payment,-90,Payment applied to Invoice #2189,,2189,Jobber Payments,ch_1FHsAiKXLQIAg16LZOeUcSNM,,,
Karen Lunt,09/12/2019,Invoice,90,,,2189,,,,,
Yinghan Wang,09/11/2019,Payment,-90,Payment applied to Invoice #2188,,2188,Jobber Payments,ch_1FHfI6KXLQIAg16L5thLzTPm,,,
Tamara Nelson,09/11/2019,Payment,-192,Payment applied to Invoice #2187,,2187,Jobber Payments,ch_1FHfFuKXLQIAg16L2MwOytpx,,,
Lana Nystom,09/11/2019,Payment,-110,Payment applied to Invoice #2185,,2185,Jobber Payments,ch_1FHf4zKXLQIAg16LNDAuPSwD,,,
Alvan Realty,09/11/2019,Payment,-35,Payment applied to Invoice #2184,,2184,Jobber Payments,ch_1FHcSaKXLQIAg16LbmUCIGOu,,,
Ryan Lai,09/11/2019,Payment,-200,Payment applied to Invoice #2182,,2182,Jobber Payments,ch_1FHZNjKXLQIAg16LVLDR7JvL,,,
Sandra Page,09/11/2019,Payment,-200,Payment applied to Invoice #2181,,2181,Jobber Payments,ch_1FHYDKKXLQIAg16LjkbGJ4VW,,,
Necia  Martinez,09/11/2019,Refund,240,,,,Jobber Payments,txn_1FHRFLKXLQIAg16LvXGnh1hA,,,
Sandra Page,09/11/2019,Invoice,200,,,2181,,,,,
Ryan Lai,09/11/2019,Invoice,200,,,2182,,,,,
Joyce  Tsai,09/11/2019,Invoice,109,,,2183,,,,,
Joyce  Tsai,09/11/2019,Payment,-109,Payment applied to Invoice #2183,172,2183,Check,,,,
Alvan Realty,09/11/2019,Invoice,35,,,2184,,,,,
Lana Nystom,09/11/2019,Invoice,110,,,2185,,,,,
Myra  Lizerbram,09/11/2019,Invoice,80,,,2186,,,,,
Myra  Lizerbram,09/11/2019,Payment,-80,Payment applied to Invoice #2186 with Claudia,,2186,Check,,,,
Tamara Nelson,09/11/2019,Invoice,192,,,2187,,,,,
Yinghan Wang,09/11/2019,Invoice,90,,,2188,,,,,
Tracy  Littlefield,09/10/2019,Payment,-288,Payment applied to Invoice #2180,,2180,Jobber Payments,ch_1FHGhHKXLQIAg16Lnnzxnl3D,,,
Russel Armstead,09/10/2019,Payment,-136,Payment applied to Invoice #2179,,2179,Jobber Payments,ch_1FHGfoKXLQIAg16LcUCBpvpC,,,
Susan  Ewsuk,09/10/2019,Payment,-272,Payment applied to Invoice #2177,,2177,Jobber Payments,ch_1FHFYfKXLQIAg16LGI7OAIrH,,,
Fernando  McCamant,09/10/2019,Payment,-136,Payment applied to Invoice #2176,,2176,Jobber Payments,ch_1FHFY0KXLQIAg16LNjAniaUB,,,
SD Beach House Rentals,09/10/2019,Payment,-240,Payment applied to Invoice #2175,,2175,Jobber Payments,ch_1FHCkiKXLQIAg16LSuQj2LSn,,,
Yinghan Wang,09/10/2019,Payment,-90,Payment applied to Invoice #2174,,2174,Jobber Payments,ch_1FHC5fKXLQIAg16LRUImALkT,,,
Debra  Willians,09/10/2019,Payment,-49,Payment applied to Invoice #2173,,2173,Jobber Payments,ch_1FHBzsKXLQIAg16L7SJNt5f3,,,
Livkraft,09/10/2019,Payment,-192,Payment applied to Invoice #2172,,2172,Jobber Payments,ch_1FHBtOKXLQIAg16LiuP1Y1BW,,,
Karissa Anthony,09/10/2019,Payment,-130,Payment applied to Invoice #2171,,2171,Jobber Payments,ch_1FHBm6KXLQIAg16LEUdJ7Hus,,,
Karissa Anthony,09/10/2019,Invoice,130,,,2171,,,,,
Livkraft,09/10/2019,Invoice,192,,,2172,,,,,
Debra  Willians,09/10/2019,Invoice,49,,,2173,,,,,
Yinghan Wang,09/10/2019,Invoice,90,,,2174,,,,,
SD Beach House Rentals,09/10/2019,Invoice,240,,,2175,,,,,
Fernando  McCamant,09/10/2019,Invoice,136,,,2176,,,,,
Susan  Ewsuk,09/10/2019,Invoice,272,,,2177,,,,,
Quinn Myers,09/10/2019,Invoice,70,,,2178,,,,,
Russel Armstead,09/10/2019,Invoice,136,,,2179,,,,,
Tracy  Littlefield,09/10/2019,Invoice,288,,,2180,,,,,
Quinn Myers,09/10/2019,Payment,-753,Chris Weiser,1044,,Check,,,,
Michael  Lucero,09/09/2019,Payment,-442,Payment applied to Invoice #2170,,2170,Jobber Payments,ch_1FGv00KXLQIAg16LJV5srvVp,,,
Hunter  Wright,09/09/2019,Payment,-96,Payment applied to Invoice #2167,,2167,Jobber Payments,ch_1FGrLAKXLQIAg16L7xpAOA49,,,
Yinghan Wang,09/09/2019,Payment,-90,Payment applied to Invoice #2166,,2166,Jobber Payments,ch_1FGpDqKXLQIAg16L6kPATCdl,,,
Diana Stafford,09/09/2019,Payment,-279,Payment applied to Invoice #2163,,2163,Jobber Payments,ch_1FGp22KXLQIAg16LezceQejt,,,
Jens  Davis,09/09/2019,Payment,-272,Payment applied to Invoice #2162,,2162,Jobber Payments,ch_1FGp0UKXLQIAg16L01bUgI27,,,
Fusion Property Management,09/09/2019,Payment,-96,Payment applied to Invoice #2161,,2161,Jobber Payments,ch_1FGoySKXLQIAg16LXKLyLKCr,,,
Fusion Property Management,09/09/2019,Invoice,96,,,2161,,,,,
Jens  Davis,09/09/2019,Invoice,272,,,2162,,,,,
Diana Stafford,09/09/2019,Invoice,279,,,2163,,,,,
Quinn Myers,09/09/2019,Invoice,43.75,,,2164,,,,,
Quinn Myers,09/09/2019,Invoice,43.75,,,2165,,,,,
Yinghan Wang,09/09/2019,Invoice,90,,,2166,,,,,
Hunter  Wright,09/09/2019,Invoice,96,,,2167,,,,,
Bluewater,09/09/2019,Invoice,280,,,2168,,,,,
Doris Meyers,09/09/2019,Invoice,125,,,2169,,,,,
Doris Meyers,09/09/2019,Payment,-125,Payment applied to Invoice #2169 with Cindy,,2169,Cash,,,,
Michael  Lucero,09/09/2019,Invoice,442,,,2170,,,,,
Teresa  Hayes,09/08/2019,Payment,-82,Payment applied to Invoice #2160,,2160,Jobber Payments,ch_1FGWLHKXLQIAg16L0oLJAkhp,,,
Teresa  Hayes,09/08/2019,Invoice,82,,,2160,,,,,
Jane Pineda,09/07/2019,Payment,-166,Payment applied to Invoice #2158,,2158,Jobber Payments,ch_1FGADTKXLQIAg16LL3eBF2mp,,,
Grace  Kilpatrick,09/07/2019,Payment,-96,Payment applied to Invoice #2157,,2157,Jobber Payments,ch_1FGA91KXLQIAg16LqH188gKo,,,
Donald  Ollier,09/07/2019,Payment,-150,Payment applied to Invoice #2156,,2156,Jobber Payments,ch_1FGA7SKXLQIAg16LkS4bgHYD,,,
Jens  Davis,09/07/2019,Payment,-234,Payment applied to Invoice #2155,,2155,Jobber Payments,ch_1FG8uRKXLQIAg16Ld07NZKiT,,,
Brian Tieu,09/07/2019,Payment,-340,Payment applied to Invoice #2154,,2154,Jobber Payments,ch_1FG897KXLQIAg16LzpXSAiyD,,,
Ben  Lo,09/07/2019,Payment,-160,Payment applied to Invoice #2152,,2152,Jobber Payments,ch_1FG86iKXLQIAg16LnDR4x0RO,,,
Livkraft,09/07/2019,Payment,-288,Payment applied to Invoice #2151,,2151,Jobber Payments,ch_1FG854KXLQIAg16LE3Ak0ppO,,,
SD Beach House Rentals,09/07/2019,Payment,-180,Payment applied to Invoice #2150,,2150,Jobber Payments,ch_1FG76iKXLQIAg16LuryqMYiw,,,
SD Beach House Rentals,09/07/2019,Invoice,180,,,2150,,,,,
Livkraft,09/07/2019,Invoice,288,,,2151,,,,,
Ben  Lo,09/07/2019,Invoice,160,,,2152,,,,,
Iboss,09/07/2019,Invoice,105,,,2153,,,,,
Brian Tieu,09/07/2019,Invoice,340,,,2154,,,,,
Jens  Davis,09/07/2019,Invoice,234,,,2155,,,,,
Donald  Ollier,09/07/2019,Invoice,150,,,2156,,,,,
Grace  Kilpatrick,09/07/2019,Invoice,96,,,2157,,,,,
Jane Pineda,09/07/2019,Invoice,166,,,2158,,,,,
Suhail  Khalil,09/07/2019,Payment,-204,"Payment applied to Invoice #2159
-Patricia",322271724,2159,Check,,,,
Suhail  Khalil,09/07/2019,Invoice,204,,,2159,,,,,
Bill  Perks,09/06/2019,Payment,-370,Payment applied to Invoice #2149,,2149,Jobber Payments,ch_1FFnPyKXLQIAg16LXL1SM6B8,,,
Kara  M. Cabados,09/06/2019,Payment,-174,Payment applied to Invoice #2146,,2146,Jobber Payments,ch_1FFksCKXLQIAg16LifBDMJs6,,,
Rebecca Tilt,09/06/2019,Payment,-100,Payment applied to Invoice #2142,,2142,Jobber Payments,ch_1FFkAnKXLQIAg16Lkp2Ufoyc,,,
Rebecca Tilt,09/06/2019,Payment,-100,Payment applied to Invoice #2054,,2054,Jobber Payments,ch_1FFkAdKXLQIAg16Lt5RFY3bC,,,
Kathy Cattedra,09/06/2019,Payment,-230,Payment applied to Invoice #2148,,2148,Jobber Payments,ch_1FFjjhKXLQIAg16LWJMAFzWH,,,
Yinghan Wang,09/06/2019,Payment,-90,Payment applied to Invoice #2147,,2147,Jobber Payments,ch_1FFjjCKXLQIAg16Le1QH0Mpg,,,
Larissa  Thunder,09/06/2019,Payment,-145,Payment applied to Invoice #2144,,2144,Jobber Payments,ch_1FFjgNKXLQIAg16LKkTkB0cR,,,
Karissa Anthony,09/06/2019,Payment,-130,Payment applied to Invoice #2143,,2143,Jobber Payments,ch_1FFjdzKXLQIAg16LwSicr4uQ,,,
Karissa Anthony,09/06/2019,Invoice,130,,,2143,,,,,
Larissa  Thunder,09/06/2019,Invoice,145,,,2144,,,,,
Chef Pharrell  Worthylake,09/06/2019,Invoice,120,,,2145,,,,,
Chef Pharrell  Worthylake,09/06/2019,Payment,-120,Payment applied to Invoice #2145 with Cindy,,2145,Cash,,,,
Kara  M. Cabados,09/06/2019,Invoice,174,,,2146,,,,,
Yinghan Wang,09/06/2019,Invoice,90,,,2147,,,,,
Kathy Cattedra,09/06/2019,Invoice,230,,,2148,,,,,
Bill  Perks,09/06/2019,Invoice,370,,,2149,,,,,
SD Beach House Rentals,09/05/2019,Payment,-270,Payment applied to Invoice #2140,,2140,Jobber Payments,ch_1FFOlHKXLQIAg16LZhsRguBm,,,
Lana Nystom,09/05/2019,Invoice,110,,,2138,,,,,
Tabaitha Harcum,09/05/2019,Invoice,120,,,2139,,,,,
Tabaitha Harcum,09/05/2019,Payment,-120,Payment applied to Invoice #2139 with Cindy,,2139,Cash,,,,
SD Beach House Rentals,09/05/2019,Invoice,270,,,2140,,,,,
Quinn Myers,09/05/2019,Invoice,70,,,2141,,,,,
Rebecca Tilt,09/05/2019,Invoice,100,,,2142,,,,,
Mike Platzer,09/05/2019,Payment,"-1,550.00",Payment applied to Invoice #1701,5282,1701,Check,,,,
Mike Platzer,09/05/2019,Payment,"-1,550.00",Payment applied to Invoice #1701,5282,1701,Check,,,,
Report totals:,,,"-$1,266.30",,,,,,,,
