client_name,date,type,total,note,check_,invoice,method,transaction,employee,received,notes
SD Beach House Rentals,10/05/2019,Payment,-240,Payment applied to Invoice #2359,,2359,Jobber Payments,ch_1FQCJIKXLQIAg16LnxBO268p,,,
Ben  Lo,10/05/2019,Payment,-160,Payment applied to Invoice #2358,,2358,Jobber Payments,ch_1FQCFUKXLQIAg16Leo1S5HOC,,,
Livkraft,10/05/2019,Payment,-288,Payment applied to Invoice #2357,,2357,Jobber Payments,ch_1FQCD4KXLQIAg16LsQa0pddO,,,
Diana Stafford,10/05/2019,Payment,-223,Payment applied to Invoice #2356,,2356,Jobber Payments,ch_1FQC7vKXLQIAg16Ls209RMyJ,,,
Diana Stafford,10/05/2019,Invoice,223,,,2356,,,,,
Livkraft,10/05/2019,Invoice,288,,,2357,,,,,
Ben  Lo,10/05/2019,Invoice,160,,,2358,,,,,
SD Beach House Rentals,10/05/2019,Invoice,240,,,2359,,,,,
