Totals

Total Transactions,91
Total Transaction Value,743.0
Invoices Sent,50
Total Invoiced,6938.0
Payments And Deposits,41
Payment And Deposit Value,-6195.0

Client name,Date,Type,Total $,Note,Check #,Invoice #,Method,Transaction ID,Confirmation #
Leah Warder,10/13/2019,Payment,-116.00,Payment applied to Invoice #2417,"",2417,Jobber Payments,ch_1FTFAOKXLQIAg16LEQiK6YT4,""
Yinghan Wang,10/13/2019,Payment,-90.00,Payment applied to Invoice #2416,"",2416,Jobber Payments,ch_1FT6yvKXLQIAg16LQN8JxJrw,""
Bridget Rubin,10/13/2019,Payment,-238.00,Payment applied to Invoice #2415,"",2415,Jobber Payments,ch_1FT6y3KXLQIAg16Ls8YhWObO,""
Rebecca Tilt,10/13/2019,Payment,-100.00,Payment applied to Invoice #2414,"",2414,Jobber Payments,ch_1FT6wlKXLQIAg16L99rNnkBx,""
Rakan  Alrasheed,10/13/2019,Payment,-96.00,Payment applied to Invoice #2413,"",2413,Jobber Payments,ch_1FT6uVKXLQIAg16Lghmcc9uU,""
Richard  Woods,10/13/2019,Payment,-105.00,Payment applied to Invoice #2412,"",2412,Jobber Payments,ch_1FT6qyKXLQIAg16LWCleo7zw,""
Hunter  Wright,10/13/2019,Payment,-96.00,Payment applied to Invoice #2411,"",2411,Jobber Payments,ch_1FT6ppKXLQIAg16LyG2lWp5v,""
Hunter  Wright,10/13/2019,Invoice,96.00,"","",2411,"","",""
Richard  Woods,10/13/2019,Invoice,105.00,"","",2412,"","",""
Rakan  Alrasheed,10/13/2019,Invoice,96.00,"","",2413,"","",""
Rebecca Tilt,10/13/2019,Invoice,100.00,"","",2414,"","",""
Bridget Rubin,10/13/2019,Invoice,238.00,"","",2415,"","",""
Yinghan Wang,10/13/2019,Invoice,90.00,"","",2416,"","",""
Leah Warder,10/13/2019,Invoice,116.00,"","",2417,"","",""
Manasvi  Sridhar,10/12/2019,Payment,-84.00,Payment applied to Invoice #2410,"",2410,Jobber Payments,ch_1FSr6HKXLQIAg16L6CVAmBqW,""
Phil  S. Haughey,10/12/2019,Payment,-160.00,Payment applied to Invoice #2409,"",2409,Jobber Payments,ch_1FSr5bKXLQIAg16LYmpr6nQK,""
Etna  Simawang,10/12/2019,Payment,-334.00,Payment applied to Invoice #2408,"",2408,Jobber Payments,ch_1FSr4sKXLQIAg16LrP6BDbLs,""
Etna  Simawang,10/12/2019,Invoice,334.00,"","",2408,"","",""
Phil  S. Haughey,10/12/2019,Invoice,160.00,"","",2409,"","",""
Manasvi  Sridhar,10/12/2019,Invoice,84.00,"","",2410,"","",""
Rakan  Alrasheed,10/11/2019,Payment,-96.00,Payment applied to Invoice #2407,"",2407,Jobber Payments,ch_1FSZ1JKXLQIAg16L0wQO0oXg,""
SD Beach House Rentals,10/11/2019,Payment,-240.00,Payment applied to Invoice #2400,"",2400,Jobber Payments,ch_1FSNbDKXLQIAg16LcDE8611R,""
Michelle Rice,10/11/2019,Payment,-259.00,Payment applied to Invoice #2399,"",2399,Jobber Payments,ch_1FSNTjKXLQIAg16LHPLpg4Dj,""
Karissa Anthony,10/11/2019,Payment,-130.00,Payment applied to Invoice #2398,"",2398,Jobber Payments,ch_1FSNR0KXLQIAg16Li6HF9sdY,""
Karissa Anthony,10/11/2019,Invoice,130.00,"","",2398,"","",""
Michelle Rice,10/11/2019,Invoice,259.00,"","",2399,"","",""
SD Beach House Rentals,10/11/2019,Invoice,240.00,"","",2400,"","",""
Terry Thompson,10/11/2019,Invoice,168.00,"","",2401,"","",""
Terry Thompson,10/11/2019,Payment,-168.00,Payment applied to Invoice #2401- with Thais,"",2401,Cash,"",""
Stacy  Therrien,10/11/2019,Invoice,110.00,"","",2402,"","",""
Stacy  Therrien,10/11/2019,Payment,-110.00,"Payment applied to Invoice #2402 - with Erica- there is a 12 dolar tip included, it is already listed for payment in trello",01140153333068975681105,2402,Check,"",""
Quinn Myers,10/11/2019,Invoice,43.75,"","",2403,"","",""
Quinn Myers,10/11/2019,Invoice,43.75,"","",2404,"","",""
Emily  Olanoff,10/11/2019,Payment,-223.00,Payment applied to Invoice #2405 mailed to Cris,13020878,2405,Check,"",""
Emily  Olanoff,10/11/2019,Invoice,223.00,"","",2405,"","",""
Bluewater,10/11/2019,Invoice,118.00,"","",2406,"","",""
Rakan  Alrasheed,10/11/2019,Invoice,96.00,"","",2407,"","",""
SD Beach House Rentals,10/10/2019,Payment,-210.00,Payment applied to Invoice #2397,"",2397,Jobber Payments,ch_1FS82hKXLQIAg16LzSaUKD2q,""
Jackie Tabaka,10/10/2019,Payment,-192.00,Payment applied to Invoice #2396,"",2396,Jobber Payments,ch_1FS7zkKXLQIAg16Lff6n3vGj,""
Fusion Property Management,10/10/2019,Payment,-96.00,Payment applied to Invoice #2395,"",2395,Jobber Payments,ch_1FS7xkKXLQIAg16LKAf9k6HA,""
Michelle  Hellman,10/10/2019,Payment,-127.00,Payment applied to Invoice #2394,"",2394,Jobber Payments,ch_1FS0jLKXLQIAg16LZwJ79AkM,""
Yinghan Wang,10/10/2019,Payment,-90.00,Payment applied to Invoice #2393,"",2393,Jobber Payments,ch_1FS0hBKXLQIAg16LuA5I2oO9,""
Lana Nystom,10/10/2019,Invoice,110.00,"","",2392,"","",""
Yinghan Wang,10/10/2019,Invoice,90.00,"","",2393,"","",""
Michelle  Hellman,10/10/2019,Invoice,127.00,"","",2394,"","",""
Quinn Myers,10/10/2019,Invoice,70.00,"","",2390,"","",""
Fusion Property Management,10/10/2019,Invoice,96.00,"","",2395,"","",""
Jackie Tabaka,10/10/2019,Invoice,192.00,"","",2396,"","",""
SD Beach House Rentals,10/10/2019,Invoice,210.00,"","",2397,"","",""
Rebecca Tilt,10/09/2019,Payment,-100.00,Payment applied to Invoice #2391,"",2391,Jobber Payments,ch_1FRlLyKXLQIAg16LmlffG1dv,""
Sandra Page,10/09/2019,Payment,-200.00,Payment applied to Invoice #2387,"",2387,Jobber Payments,ch_1FRe1uKXLQIAg16LDKYhAP9j,""
Sandra Page,10/09/2019,Invoice,200.00,"","",2387,"","",""
Derek  Young,10/09/2019,Invoice,0.00,"","",2388,"","",""
Joyce  Tsai,10/09/2019,Invoice,109.00,"","",2389,"","",""
Joyce  Tsai,10/09/2019,Payment,-109.00,Payment applied to Invoice #2389 with Cindy,12400311610401484520175,2389,Check,"",""
Rebecca Tilt,10/09/2019,Invoice,100.00,"","",2391,"","",""
Fernando  McCamant,10/08/2019,Payment,-136.00,Payment applied to Invoice #2386,"",2386,Jobber Payments,ch_1FRP3fKXLQIAg16L0fyNeJ7x,""
Neil  Scordato,10/08/2019,Payment,-187.00,Payment applied to Invoice #2383,"",2383,Jobber Payments,ch_1FRP3FKXLQIAg16LwV9mRtlj,""
Ryan  Wheeler,10/08/2019,Payment,-70.00,Payment applied to Invoice #2385,"",2385,Jobber Payments,ch_1FROlyKXLQIAg16Lnb84z4Pi,""
Russel Armstead,10/08/2019,Payment,-119.00,Payment applied to Invoice #2384,"",2384,Jobber Payments,ch_1FROikKXLQIAg16LPQkRJ0Gu,""
SD Beach House Rentals,10/08/2019,Payment,-240.00,Payment applied to Invoice #2382,"",2382,Jobber Payments,ch_1FRIf1KXLQIAg16LF9mS255u,""
Jens  Davis,10/08/2019,Payment,-272.00,Payment applied to Invoice #2381,"",2381,Jobber Payments,ch_1FRIZ7KXLQIAg16LtlW2jgJl,""
Livkraft,10/08/2019,Payment,-192.00,Payment applied to Invoice #2380,"",2380,Jobber Payments,ch_1FRIJaKXLQIAg16L3wR4C3LV,""
Karissa Anthony,10/08/2019,Payment,-130.00,Payment applied to Invoice #2379,"",2379,Jobber Payments,ch_1FRI9bKXLQIAg16LJO1JE0jK,""
Karissa Anthony,10/08/2019,Invoice,130.00,"","",2379,"","",""
Livkraft,10/08/2019,Invoice,192.00,"","",2380,"","",""
Jens  Davis,10/08/2019,Invoice,272.00,"","",2381,"","",""
SD Beach House Rentals,10/08/2019,Invoice,240.00,"","",2382,"","",""
Russel Armstead,10/08/2019,Invoice,119.00,"","",2384,"","",""
Ryan  Wheeler,10/08/2019,Invoice,70.00,"","",2385,"","",""
Neil  Scordato,10/08/2019,Invoice,187.00,"","",2383,"","",""
Fernando  McCamant,10/08/2019,Invoice,136.00,"","",2386,"","",""
Debra  Willians,10/07/2019,Payment,-49.00,Payment applied to Invoice #2374,"",2374,Jobber Payments,ch_1FR3uWKXLQIAg16LXseKaeUs,""
Joseph  Schiano,10/07/2019,Payment,-50.00,Payment applied to Invoice #2373,"",2373,Jobber Payments,ch_1FR0gRKXLQIAg16LcukK7dXX,""
Yinghan Wang,10/07/2019,Payment,-90.00,Payment applied to Invoice #2371,"",2371,Jobber Payments,ch_1FQx85KXLQIAg16LRTkKVDyC,""
Daniel  Inscore,10/07/2019,Payment,-240.00,Payment applied to Invoice #2369,"",2369,Jobber Payments,ch_1FQwzBKXLQIAg16LOAC2AF4o,""
Ellen Li Peishan,10/07/2019,Invoice,120.00,"","",2368,"","",""
Ellen Li Peishan,10/07/2019,Payment,-120.00,Payment applied to Invoice #2368 with Thais,3140742691343993660348,2368,Check,"",""
Daniel  Inscore,10/07/2019,Invoice,240.00,"","",2369,"","",""
Tara Robbins,10/07/2019,Invoice,306.00,"","",2370,"","",""
Tara Robbins,10/07/2019,Payment,-306.00,Payment applied to Invoice #2370 with Claudia,0067901220006611182800990,2370,Check,"",""
Yinghan Wang,10/07/2019,Invoice,90.00,"","",2371,"","",""
Doris Meyers,10/07/2019,Invoice,125.00,"","",2372,"","",""
Doris Meyers,10/07/2019,Payment,-125.00,Payment applied to Invoice #2372 with Taina,"",2372,Cash,"",""
Joseph  Schiano,10/07/2019,Invoice,50.00,"","",2373,"","",""
Debra  Willians,10/07/2019,Invoice,49.00,"","",2374,"","",""
Quinn Myers,10/07/2019,Invoice,38.75,"","",2375,"","",""
Quinn Myers,10/07/2019,Invoice,38.75,"","",2376,"","",""
Bluewater,10/07/2019,Invoice,280.00,"","",2377,"","",""
Michael  Margulis,10/07/2019,Invoice,100.00,"","",2378,"","",""
Michael  Margulis,10/07/2019,Payment,-100.00,Payment applied to Invoice #2378 with Cindy,"",2378,Cash,"",""
Report totals:,,,$743.00,,,,,,
