12 SD Beach House Rentals 10/05/2019 Payment -240   2359 Jobber Payments
13 Ben  Lo 10/05/2019 Payment -160   2358 Jobber Payments
14 Livkraft 10/05/2019 Payment -288   2357 Jobber Payments
15 Diana Stafford 10/05/2019 Payment -223   2356 Jobber Payments
20 Ryan  Wheeler 10/04/2019 Payment -70   2355 Jobber Payments
21 Cody Giambrone 10/04/2019 Payment -202   2353 Jobber Payments
22 Larissa  Thunder 10/04/2019 Payment -145   2348 Jobber Payments
23 Karissa Anthony 10/04/2019 Payment -130   2347 Jobber Payments
24 IVS Group / Muse 10/04/2019 Payment -684   2321 Jobber Payments
28 Chef Pharrell  Worthylake 10/04/2019 Payment -120   2349 Cash
33 Bluewater 10/04/2019 Payment -1030  5180  Check
35 Bradford McMahan 10/04/2019 Payment -267  156 2354 Check
37 Connor  Georgantos 10/03/2019 Payment -50   2346 Jobber Payments
38 Ben  Ruth 10/03/2019 Payment -149   2343 Jobber Payments
39 Yinghan Wang 10/03/2019 Payment -90   2342 Jobber Payments
40 Stephanie  Johnson 10/03/2019 Payment -192   2341 Jobber Payments
46 Tabaitha Harcum 10/03/2019 Payment -120   2345 Cash
48 Juan Esteban  Tapiero Bernal 10/02/2019 Payment -108   2340 Jobber Payments
49 Rebecca Tilt 10/02/2019 Payment -100   2339 Jobber Payments
50 Angel Kohls 10/02/2019 Payment -224   2338 Jobber Payments
51 Tara Weber 10/02/2019 Payment -103   2336 Jobber Payments
57 Ryan  Wheeler 10/01/2019 Payment -70   2335 Jobber Payments
58 Anita Fargo 10/01/2019 Payment -355   2334 Jobber Payments
59 Fernando  McCamant 10/01/2019 Payment -136   2333 Jobber Payments
60 Kara  M. Cabados 10/01/2019 Payment -174   2299 Jobber Payments
61 Livkraft 10/01/2019 Payment -192   2331 Jobber Payments
62 John  Anton 10/01/2019 Payment -136   2330 Jobber Payments
63 Karissa Anthony 10/01/2019 Payment -130   2329 Jobber Payments
68 Cynthia  Bryant 10/01/2019 Payment -238   2332 Credit Card
72 Salma Navarette 09/30/2019 Payment -165   2328 Jobber Payments
73 Kathy Cattedra 09/30/2019 Payment -230   2327 Jobber Payments
74 Yinghan Wang 09/30/2019 Payment -90   2326 Jobber Payments
75 SD Beach House Rentals 09/30/2019 Payment -90   2323 Jobber Payments
76 Fedra  Uribe 09/30/2019 Payment -50   2319 Jobber Payments
77 Debra  Willians 09/30/2019 Payment -49   2320 Jobber Payments
78 Lana Nystom 09/30/2019 Payment -110   2291 Jobber Payments
79 Mary Halub 09/30/2019 Payment -299   2317 Jobber Payments
80 Ryan  Wheeler 09/30/2019 Payment -70   2316 Jobber Payments
81 Stephen  Boyer 09/30/2019 Payment -272   2315 Jobber Payments
82 Chris  Shoup 09/30/2019 Payment -204   2314 Jobber Payments
83 Yinghan Wang 09/30/2019 Payment -105   2313 Jobber Payments
84 Hunter  Wright 09/30/2019 Payment -96   2312 Jobber Payments
85 William  Rivers 09/30/2019 Payment -134   2311 Jobber Payments
104 Jennifer Elrod 09/28/2019 Payment -132   2310 Jobber Payments
105 Richard  Woods 09/28/2019 Payment -105   2309 Jobber Payments
106 SD Beach House Rentals 09/28/2019 Payment -180   2308 Jobber Payments
107 Manasvi  Sridhar 09/28/2019 Payment -84   2307 Jobber Payments
108 Pamela Meyers 09/28/2019 Payment -161   2306 Jobber Payments
109 Dave  Hartzell 09/28/2019 Payment -102   2305 Jobber Payments
110 Livkraft 09/28/2019 Payment -288   2304 Jobber Payments
118 Jesse  Guerra 09/27/2019 Payment -224   2303 Jobber Payments
119 Vanessa  Collier 09/27/2019 Payment -365   2302 Jobber Payments
120 Steve  Connolly 09/27/2019 Payment -102   2301 Jobber Payments
121 Chad  Preim 09/27/2019 Payment -263   2300 Jobber Payments
122 Karissa Anthony 09/27/2019 Payment -130   2297 Jobber Payments
123 SD Beach House Rentals 09/27/2019 Payment -240   2296 Jobber Payments
127 Chef Pharrell  Worthylake 09/27/2019 Payment -40   2298 Cash
133 Larissa  Thunder 09/26/2019 Payment -145   2295 Jobber Payments
134 David  Park 09/26/2019 Payment -96   2293 Jobber Payments
137 Kripa Liniradur 09/26/2019 Payment -150  260 2294 Check
139 Yinghan Wang 09/25/2019 Payment -90   2292 Jobber Payments
140 John Martin 09/25/2019 Payment -221   2288 Jobber Payments
141 SD Beach House Rentals 09/25/2019 Payment -240   2286 Jobber Payments
142 Rebecca Tilt 09/25/2019 Payment -115   2285 Jobber Payments
143 SD Beach House Rentals 09/25/2019 Payment -105   2284 Jobber Payments
144 Sandra Page 09/25/2019 Payment -200   2283 Jobber Payments
145 Carole Bernstei 09/25/2019 Payment -90   2282 Jobber Payments
146 Tracy  Littlefield 09/25/2019 Payment -288   2281 Jobber Payments
147 Fernando  McCamant 09/25/2019 Payment -136   2280 Jobber Payments
156 Joyce  Tsai 09/25/2019 Payment -100  12400311610401484520174 2287 Check
160 Myra  Lizerbram 09/25/2019 Payment -80  143 2290 Check
163 Livkraft 09/24/2019 Payment -192   2279 Jobber Payments
164 Angela  Silva 09/24/2019 Payment -199   2277 Jobber Payments
165 Chris Williamson 09/24/2019 Payment -187   2276 Jobber Payments
169 Ellen Li Peishan 09/24/2019 Payment -240  3140742691343993660345 2278 Check
171 Kathy Cattedra 09/23/2019 Payment -230   2274 Jobber Payments
172 Karissa Anthony 09/23/2019 Payment -130   2273 Jobber Payments
173 Debra  Willians 09/23/2019 Payment -49   2271 Jobber Payments
174 Fusion Property Management 09/23/2019 Payment -96   2270 Jobber Payments
175 Amira  Sheikh 09/23/2019 Payment -170   2269 Jobber Payments
176 Rebecca Tilt 09/23/2019 Payment -35   2268 Jobber Payments
177 Yinghan Wang 09/23/2019 Payment -90   2267 Jobber Payments
178 Margaret  Hooker 09/23/2019 Payment -204   2265 Jobber Payments
179 Hunter  Wright 09/23/2019 Payment -96   2263 Jobber Payments
193 Bluewater 09/23/2019 Payment -280  5174 2217 Check
194 Gary W  Bahnmiller 09/22/2019 Payment -358   2262 Jobber Payments
195 SD Beach House Rentals 09/22/2019 Payment -240   2261 Jobber Payments
198 Mark  Thorsen 09/21/2019 Payment -96   2260 Jobber Payments
199 Lynn  Goodfellow 09/21/2019 Payment -217   2259 Jobber Payments
200 Donald  Ollier 09/21/2019 Payment -150   2258 Jobber Payments
201 Christina Nguyen 09/21/2019 Payment -146   2257 Jobber Payments
202 Lana Nystom 09/21/2019 Payment -110   2256 Jobber Payments
204 Livkraft 09/21/2019 Payment -288   2255 Jobber Payments
206 Marie  Sweeney 09/21/2019 Payment -408  3788 2248 Check
212 Ashish  Patel 09/20/2019 Payment -35   2254 Jobber Payments
213 Alex B  Johnson 09/20/2019 Payment -119   2253 Jobber Payments
214 Ben  Lo 09/20/2019 Payment -160   2252 Jobber Payments
215 Nyere K   Palmer 09/20/2019 Payment -355   2251 Jobber Payments
216 Lisa  Motinko 09/20/2019 Payment -102   2250 Jobber Payments
217 Lisa  Nichols 09/20/2019 Payment -140   2249 Jobber Payments
219 SD Beach House Rentals 09/20/2019 Payment -180   2247 Jobber Payments
220 Kevin  Gregory 09/20/2019 Payment -268   2246 Jobber Payments
221 Karissa Anthony 09/20/2019 Payment -130   2245 Jobber Payments
232 SD Beach House Rentals 09/19/2019 Payment -105   2243 Jobber Payments
233 Larissa  Thunder 09/19/2019 Payment -145   2241 Jobber Payments
234 Yinghan Wang 09/19/2019 Payment -90   2240 Jobber Payments
235 Rebecca Tilt 09/19/2019 Payment -100   2239 Jobber Payments
236 David Devereaux 09/19/2019 Payment -318   2238 Jobber Payments
237 Emily  Straffin 09/19/2019 Payment -169   2237 Jobber Payments
239 Myra  Lizerbram 09/19/2019 Payment -80  3222816170150001999900139 2236 Check
246 Jeanine Bonvin 09/19/2019 Payment -69  011075150275001458452330 2242 Check
248 Chef Pharrell  Worthylake 09/19/2019 Payment -120   2244 Cash
250 John  Tyler 09/18/2019 Payment -50   2235 Jobber Payments
251 Juan Esteban  Tapiero Bernal 09/18/2019 Payment -108   2233 Jobber Payments
252 Karen Lunt 09/18/2019 Payment -35   2232 Jobber Payments
257 Fernando  McCamant 09/17/2019 Payment -136   2231 Jobber Payments
258 Amy Garczynsk 09/17/2019 Payment -209   2228 Jobber Payments
259 Livkraft 09/17/2019 Payment -192   2227 Jobber Payments
260 Karissa Anthony 09/17/2019 Payment -130   2226 Jobber Payments
270 Kathy Cattedra 09/16/2019 Payment -230   2224 Jobber Payments
271 Debra  Willians 09/16/2019 Payment -49   2222 Jobber Payments
272 Sandra Page 09/16/2019 Payment -700   2205 Jobber Payments
273 Tamara Nelson 09/16/2019 Payment -128   2221 Jobber Payments
274 Yinghan Wang 09/16/2019 Payment -90   2220 Jobber Payments
275 Jonathan Schneider 09/16/2019 Payment -221   2216 Jobber Payments
276 Hunter  Wright 09/16/2019 Payment -96   2215 Jobber Payments
283 Bluewater 09/16/2019 Payment -280  5117 2052 Check
285 Iboss 09/16/2019 Payment -105  4327 2153 Check
286 Muse Owners Association 09/16/2019 Payment -2719  793 2121 Check
290 Richard  Woods 09/15/2019 Payment -105   2214 Jobber Payments
291 SD Beach House Rentals 09/15/2019 Payment -240   2213 Jobber Payments
292 Abtin  Moeini 09/15/2019 Payment -141   2212 Jobber Payments
296 Pete Corso 09/14/2019 Payment -238   2211 Jobber Payments
297 Binfeng  Ding 09/14/2019 Payment -204   2210 Jobber Payments
298 Alvan Realty 09/14/2019 Payment -136   2209 Jobber Payments
299 Deanne  Jamison 09/14/2019 Payment -102   2208 Jobber Payments
300 Jennifer Elrod 09/14/2019 Payment -132   2207 Jobber Payments
301 Giulia  Maimone 09/14/2019 Payment -221   2206 Jobber Payments
302 Livkraft 09/14/2019 Payment -288   2203 Jobber Payments
305 Terry Thompson 09/14/2019 Payment -168   2204 Cash
313 Udo  Kerkfeld 09/13/2019 Payment -427   2202 Jobber Payments
314 Hunter  Wright 09/13/2019 Payment -35   2201 Jobber Payments
315 Yinghan Wang 09/13/2019 Payment -90   2199 Jobber Payments
316 Shira  Wiseman 09/13/2019 Payment -85   2198 Jobber Payments
317 Kathryn  Jenkins 09/13/2019 Payment -149   2197 Jobber Payments
318 Larissa  Thunder 09/13/2019 Payment -145   2195 Jobber Payments
319 James Schultz and Brigid Gehegan 09/13/2019 Payment -196   2194 Jobber Payments
320 Tara Weber 09/13/2019 Payment -103   2193 Jobber Payments
321 Michelle Rice 09/13/2019 Payment -224   2191 Jobber Payments
322 Karissa Anthony 09/13/2019 Payment -130   2190 Jobber Payments
326 Stacy  Therrien 09/13/2019 Payment -110  1103 2192 Check
331 Chef Pharrell  Worthylake 09/13/2019 Payment -120   2196 Cash
338 Manasvi  Sridhar 09/12/2019 Payment -84   2096 Jobber Payments
339 Karen Lunt 09/12/2019 Payment -90   2189 Jobber Payments
341 Yinghan Wang 09/11/2019 Payment -90   2188 Jobber Payments
342 Tamara Nelson 09/11/2019 Payment -192   2187 Jobber Payments
343 Lana Nystom 09/11/2019 Payment -110   2185 Jobber Payments
344 Alvan Realty 09/11/2019 Payment -35   2184 Jobber Payments
345 Ryan Lai 09/11/2019 Payment -200   2182 Jobber Payments
346 Sandra Page 09/11/2019 Payment -200   2181 Jobber Payments
351 Joyce  Tsai 09/11/2019 Payment -109  172 2183 Check
355 Myra  Lizerbram 09/11/2019 Payment -80   2186 Check
358 Tracy  Littlefield 09/10/2019 Payment -288   2180 Jobber Payments
359 Russel Armstead 09/10/2019 Payment -136   2179 Jobber Payments
360 Susan  Ewsuk 09/10/2019 Payment -272   2177 Jobber Payments
361 Fernando  McCamant 09/10/2019 Payment -136   2176 Jobber Payments
362 SD Beach House Rentals 09/10/2019 Payment -240   2175 Jobber Payments
363 Yinghan Wang 09/10/2019 Payment -90   2174 Jobber Payments
364 Debra  Willians 09/10/2019 Payment -49   2173 Jobber Payments
365 Livkraft 09/10/2019 Payment -192   2172 Jobber Payments
366 Karissa Anthony 09/10/2019 Payment -130   2171 Jobber Payments
378 Michael  Lucero 09/09/2019 Payment -442   2170 Jobber Payments
379 Hunter  Wright 09/09/2019 Payment -96   2167 Jobber Payments
380 Yinghan Wang 09/09/2019 Payment -90   2166 Jobber Payments
381 Diana Stafford 09/09/2019 Payment -279   2163 Jobber Payments
382 Jens  Davis 09/09/2019 Payment -272   2162 Jobber Payments
383 Fusion Property Management 09/09/2019 Payment -96   2161 Jobber Payments
393 Doris Meyers 09/09/2019 Payment -125   2169 Cash
395 Teresa  Hayes 09/08/2019 Payment -82   2160 Jobber Payments
397 Jane Pineda 09/07/2019 Payment -166   2158 Jobber Payments
398 Grace  Kilpatrick 09/07/2019 Payment -96   2157 Jobber Payments
399 Donald  Ollier 09/07/2019 Payment -150   2156 Jobber Payments
400 Jens  Davis 09/07/2019 Payment -234   2155 Jobber Payments
401 Brian Tieu 09/07/2019 Payment -340   2154 Jobber Payments
402 Ben  Lo 09/07/2019 Payment -160   2152 Jobber Payments
403 Livkraft 09/07/2019 Payment -288   2151 Jobber Payments
404 SD Beach House Rentals 09/07/2019 Payment -180   2150 Jobber Payments
414 Suhail  Khalil 09/07/2019 Payment -204  322271724 2159 Check
416 Bill  Perks 09/06/2019 Payment -370   2149 Jobber Payments
417 Kara  M. Cabados 09/06/2019 Payment -174   2146 Jobber Payments
418 Rebecca Tilt 09/06/2019 Payment -100   2142 Jobber Payments
419 Rebecca Tilt 09/06/2019 Payment -100   2054 Jobber Payments
420 Kathy Cattedra 09/06/2019 Payment -230   2148 Jobber Payments
421 Yinghan Wang 09/06/2019 Payment -90   2147 Jobber Payments
422 Larissa  Thunder 09/06/2019 Payment -145   2144 Jobber Payments
423 Karissa Anthony 09/06/2019 Payment -130   2143 Jobber Payments
427 Chef Pharrell  Worthylake 09/06/2019 Payment -120   2145 Cash
432 SD Beach House Rentals 09/05/2019 Payment -270   2140 Jobber Payments
435 Tabaitha Harcum 09/05/2019 Payment -120   2139 Cash
439 Mike Platzer 09/05/2019 Payment -1550  5282 1701 Check
