12 Lisa Lifton 01/07/2019 Payment -165   2754 Cash
13 Joshua Cruz 01/12/2019 Payment -213   2782 Cash
14 Jacquattta Simmons 01/18/2019 Payment -172   2806 Cash
15 Anna  Kaoutskaia 01/24/2019 Payment -159   2839 Cash
16 Milly  Ray 01/27/2019 Payment -128   2853 Cash
17 Cris Test 02/02/2019 Payment -57   2857 Cash
19 Nicklas  Villa 02/11/2019 Payment -96   2915 Cash
20 Lisa Lifton 02/14/2019 Payment -165   2928 Cash
21 Jacquattta Simmons 02/16/2019 Payment -89   2941 Cash
22 Ray  Ortiz 02/16/2019 Payment -160   2943 Cash
23 Jacquattta Simmons 03/15/2019 Payment -89   3050 Cash
24 Stephnie Sahadeo 03/20/2019 Payment -192   3071 Cash
25 Paul and Betty Duggal 03/23/2019 Payment -140    Cash
26 Paul and Betty Duggal 04/05/2019 Payment -140   3143 Cash
27 Jacquattta Simmons 04/20/2019 Payment -89   3201 Cash
28 Ganesh Venkat 04/24/2019 Payment -84   3216 Cash
29 Lisa Lifton 04/26/2019 Payment -165   3228 Cash
30 James Dominguez 04/29/2019 Payment -277   3240 Cash
31 Nicole Baszanda 05/14/2019 Payment -144   3308 Cash
32 Elissa-ann Buckley 05/17/2019 Payment -137   3320 Cash
33 Sheila  Burgner 05/20/2019 Payment 0   3337 Cash
34 Shiva  Sinaeian 05/23/2019 Payment -182   3353 Cash
35 Emily Denton 05/25/2019 Payment -108   3362 Cash
36 Jessel  Mohammed 05/28/2019 Payment -227   3375 Cash
37 Erika Bodnar 06/01/2019 Payment 0   3394 Cash
38 Cody Werner 06/03/2019 Payment -192   3395 Cash
39 Emily Denton 06/06/2019 Payment -136   3411 Cash
40 Michael Davis 06/11/2019 Payment -140   3433 Cash
42 Beverly O'Quinn 06/12/2019 Payment -120   3435 Cash
43 Danielle Telsair 06/20/2019 Payment -229   3466 Cash
44 James Dominguez 06/24/2019 Payment -269   3486 Cash
45 Dian S. Gantt 07/05/2019 Payment -193   3534 Cash
46 Jennifer Pitt 07/06/2019 Payment -300   3538 Cash
47 James Dominguez 07/10/2019 Payment -209   3549 Cash
48 Cathy  Mcallister 07/27/2019 Payment -97   3614 Cash
49 James Dominguez 07/29/2019 Payment -209   3619 Cash
51 James Dominguez 08/12/2019 Payment -209   3681 Cash
52 Genelle  Hassan 08/16/2019 Payment -93   3697 Cash
53 Maria Pietrunti 08/21/2019 Payment -150   3710 Cash
55 Javier and Chur Colayco 08/24/2019 Payment -240   3727 Cash
56 Daniil  Bogdanov 08/29/2019 Payment -262   3752 Cash
57 Vinay  Vedhulla 08/31/2019 Payment -196   3764 Cash
58 Jennifer  Palmer 09/09/2019 Payment -207   3784 Cash
59 Lindsay Waybright 09/23/2019 Payment 0   3837 Cash
60 Shannon Nolan and Chris Hashman 10/10/2019 Payment -90   3926 Cash
61 Tesheena  Lowry 10/15/2019 Payment -129   3952 Cash
62 Kristine Sardisco 01/02/2019 Payment -87.2  6237 2731 Check
63 Kristine Sardisco 01/02/2019 Payment -143.2  3455 2732 Check
64 Pegg Johnson 01/04/2019 Payment -95  702 2742 Check
66 Claudia Duran 01/04/2019 Payment -99  2262 2747 Check
67 Leween Jones 01/05/2019 Payment -188  4098 2749 Check
68 Lauren 01/05/2019 Payment -308  1530 2750 Check
69 Sandy Manning 01/06/2019 Payment -225  227 2674 Check
70 Indra Bhawanie 01/08/2019 Payment -345  3189 2761 Check
71 Glen  Haughton 01/10/2019 Payment -85  182 2773 Check
72 Pegg Johnson 01/11/2019 Payment -95  703 2776 Check
73 Metro Corral 01/11/2019 Payment -768.4   2735 Check
74 Claudia Duran 01/11/2019 Payment -99  2263 2780 Check
75 Mary  Cadena 01/15/2019 Payment -286  1076 2790 Check
76 Kristine Sardisco 01/16/2019 Payment -109  6238 2793 Check
77 Leween Jones 01/16/2019 Payment -188  4099 2795 Check
78 Kristine Sardisco 01/16/2019 Payment -179  3461 2796 Check
79 Jodee  Kayton 01/16/2019 Payment -160  1723 2797 Check
80 Holly  Hodgy 01/17/2019 Payment -120  2656 2804 Check
81 Pegg Johnson 01/18/2019 Payment -95  704 2805 Check
82 Claudia Duran 01/18/2019 Payment -99  2171 2811 Check
83 Jennifer Ralston 01/22/2019 Payment -208  184 2820 Check
84 Glen  Haughton 01/23/2019 Payment -85  185 2827 Check
85 Wesley Day 01/24/2019 Payment -145   2842 Check
86 Bimal Fernando 01/25/2019 Payment -149  5606 2848 Check
87 Claudia Duran 01/25/2019 Payment -99  2172 2849 Check
88 Linda Thomas 01/28/2019 Payment -84  5635 2855 Check
89 Mary  Cadena 01/29/2019 Payment -97  1003 2862 Check
90 Leanne Miksa 01/29/2019 Payment -185  1063 2863 Check
91 Ron Lucas 01/29/2019 Payment -79  1044 2450 Check
92 Merrill Gardens 01/29/2019 Payment -190.64  016012 2634 Check
93 Kristine Sardisco 01/30/2019 Payment -109  6243 2868 Check
94 Kristine Sardisco 01/30/2019 Payment -179  3467 2870 Check
95 Leween Jones 01/30/2019 Payment -188  4102 2873 Check
96 Claudia Duran 02/02/2019 Payment -99  2179 2885 Check
97 Kristine Sardisco 02/13/2019 Payment -109  6245 2920 Check
98 Kristine Sardisco 02/13/2019 Payment -179  3472 2922 Check
99 Leween Jones 02/13/2019 Payment -188  4104 2923 Check
100 Glen  Haughton 02/14/2019 Payment -85  188 2929 Check
101 Mary  Cadena 02/15/2019 Payment -97  1004 2935 Check
102 Metro Corral 02/15/2019 Payment -370  21228 2858 Check
103 Linda Thomas 02/18/2019 Payment -84  5642 2944 Check
104 Louise Thompson 02/18/2019 Payment -126  1242 2945 Check
105 Sharon  Sheridan 02/19/2019 Payment -267  2482 2948 Check
106 Holly  Hodgy 02/21/2019 Payment -120  2667 2962 Check
107 Mary  Cadena 02/26/2019 Payment -97  1005 2976 Check
108 Kristine Sardisco 02/27/2019 Payment -109  6502 2982 Check
109 Kristine Sardisco 02/27/2019 Payment -179  3479 2983 Check
110 Leanne Miksa 02/27/2019 Payment -185  1064 2984 Check
111 Glen  Haughton 02/28/2019 Payment -85  191 2991 Check
112 Wesley Day 03/05/2019 Payment -145  509 3008 Check
113 Rebecca Hoffpauir 03/06/2019 Payment -115  7958 3015 Check
114 Leween Jones 03/08/2019 Payment -188  4109 3028 Check
115 Mary  Cadena 03/12/2019 Payment -97  1008 3041 Check
116 Mary  Cadena 03/12/2019 Payment -160  1007 3009 Check
117 Merrill Gardens 03/12/2019 Payment -136.5  016130 2969 Check
118 Merrill Gardens 03/12/2019 Payment -117  016130 2972 Check
119 Kristine Sardisco 03/13/2019 Payment -109  6506 3042 Check
120 Kristine Sardisco 03/13/2019 Payment -179  3481 3043 Check
121 Glen  Haughton 03/14/2019 Payment -85  195 3048 Check
122 Linda Thomas 03/18/2019 Payment -84  5656 3057 Check
123 Sharon  Sheridan 03/18/2019 Payment -128   3060 Check
124 Leween Jones 03/22/2019 Payment -188  4110 3077 Check
125 Mary  Cadena 03/23/2019 Payment -97  1010 3082 Check
126 Merrill Gardens 03/27/2019 Payment -234  016166  2951 Check
127 Leanne Miksa 03/27/2019 Payment -185   3101 Check
128 Holly  Hodgy 03/28/2019 Payment -120  2680 3103 Check
130 Glen  Haughton 03/29/2019 Payment -85  110 3109 Check
131 Chris  Congdon 03/30/2019 Payment -90  262 3116 Check
132 Rebecca Hoffpauir 04/02/2019 Payment -115  7959 3122 Check
133 Chris  Congdon 04/04/2019 Payment -90  263 3134 Check
134 Jasmine  Swenson 04/04/2019 Payment -142  102 3137 Check
135 Leween Jones 04/05/2019 Payment -188  4113 3141 Check
136 Kristine Sardisco 04/10/2019 Payment -179  3494 3163 Check
137 Mary  Cadena 04/10/2019 Payment -97  01027 3164 Check
138 Glen  Haughton 04/11/2019 Payment -85  0111 3169 Check
139 Leween Jones 04/19/2019 Payment -188  4115 3195 Check
140 Linda Thomas 04/22/2019 Payment -84  5665 3203 Check
141 Leanne Miksa 04/23/2019 Payment -185  1070 3210 Check
142 Mary  Cadena 04/23/2019 Payment -97  01028 3212 Check
143 Glen  Haughton 04/25/2019 Payment -85  113 3221 Check
144 Holly  Hodgy 05/02/2019 Payment -120  2687 3252 Check
146 Leween Jones 05/03/2019 Payment -188  4119 3263 Check
147 Mary  Cadena 05/07/2019 Payment -97  1029 3275 Check
148 Kristine Sardisco 05/08/2019 Payment -179  3508 3278 Check
149 Jaclyn Shebovsky 05/09/2019 Payment -112  2179 3284 Check
150 Jennie  Van 05/09/2019 Payment -169  0178 3286 Check
151 Glen  Haughton 05/09/2019 Payment -85  0115 3287 Check
152 Leween Jones 05/17/2019 Payment -188  4121 3323 Check
153 Linda Thomas 05/20/2019 Payment -84  5671 3334 Check
154 Jaclyn Shebovsky 05/21/2019 Payment -112  1675 3339 Check
155 Mary  Cadena 05/21/2019 Payment -97  01031 3341 Check
156 Kristine Sardisco 05/22/2019 Payment -179  3512 3347 Check
157 Marylind  Purdy 05/24/2019 Payment -192  1609 3360 Check
158 Leween Jones 05/31/2019 Payment -188  4126 3388 Check
159 Glen  Haughton 06/06/2019 Payment -85  119 3415 Check
160 Holly  Hodgy 06/06/2019 Payment -120  2696 3418 Check
161 Leween Jones 06/14/2019 Payment -188  4129 3442 Check
162 Linda Thomas 06/17/2019 Payment -84  5681 3453 Check
163 Kristine Sardisco 06/19/2019 Payment -204  3520 3464 Check
164 Betty  McDaniel 06/20/2019 Payment -172  3951 3470 Check
165 Glen  Haughton 06/21/2019 Payment -85  122 3478 Check
166 Leween Jones 06/28/2019 Payment -188  4132 3500 Check
167 Kathryn Keillor 06/29/2019 Payment -244  271 3510 Check
168 Jaslin Henry 07/03/2019 Payment -172   3527 Check
169 Coy  Windt 07/10/2019 Payment -164  122 3547 Check
170 Sal  Sardisco 07/10/2019 Payment -179  3527 3551 Check
171 Leween Jones 07/12/2019 Payment -188  4137 3561 Check
172 Lorena Myers 07/15/2019 Payment 0   3572 Check
173 Linda Thomas 07/15/2019 Payment -84  5685 3571 Check
174 Loveland Properties 07/16/2019 Payment -280  1070 3446 Check
176 Leween Jones 07/26/2019 Payment -188   3610 Check
177 Nader Negm 07/27/2019 Payment -183  370 3617 Check
179 Joseph  Ossa 08/07/2019 Payment -128  1150 3659 Check
180 Leween Jones 08/09/2019 Payment -188   3671 Check
181 Steve Golba 08/15/2019 Payment -119  304 3692 Check
183 Caroline Malaugh 08/19/2019 Payment -173  stripe 3704 Check
184 Leween Jones 08/23/2019 Payment -188  4150 3722 Check
185 Linda Thomas 08/26/2019 Payment -84   3732 Check
186 Alicia  Nunez 08/27/2019 Payment -150   3743 Check
187 Sal  Sardisco 08/28/2019 Payment -179   3750 Check
188 Steve Golba 08/29/2019 Payment -119   3753 Check
189 Karen  Prociak 08/29/2019 Payment -240  5030 3755 Check
190 Leween Jones 09/06/2019 Payment -188  4152 3775 Check
191 Sal  Sardisco 09/11/2019 Payment -179  063102152 3792 Check
192 Steve Golba 09/12/2019 Payment -119  98 3795 Check
193 Linda Thomas 09/16/2019 Payment -84  5714 3811 Check
194 Leween Jones 09/20/2019 Payment -188  4154 3833 Check
195 Norma  Delancey 09/24/2019 Payment -304  314074269500774731431 3847 Check
196 Sal  Sardisco 09/25/2019 Payment -179  3552 3855 Check
197 Steve Golba 09/26/2019 Payment -119  2712918265031653260315 3857 Check
198 Elyse  Foster 09/30/2019 Payment -269  322274842 3882 Check
199 Susan  Dutter 10/03/2019 Payment -98  0510000174350373430752037 3889 Check
200 Leween Jones 10/04/2019 Payment -188  4160 3898 Check
201 Sal  Sardisco 10/10/2019 Payment -179  06310215202610116692733558 3921 Check
202 Steve Golba 10/10/2019 Payment -119  316 3923 Check
203 Susan  Dutter 10/16/2019 Payment -98  0500007435037343075  3957 Check
204 Kellen  Loyle 10/16/2019 Payment -336  322274821010001657228 3958 Check
205 Kathrine Ayala 01/23/2019 Payment -311   2831 Credit Card
207 Cris Test 03/04/2019 Payment -1  1777 3004 Credit Card
208 Shiva  Sinaeian 06/05/2019 Payment -180   3400 Credit Card
209 Edwin Torres 06/06/2019 Payment -126   3417 Credit Card
211 Iram  Ali 09/10/2019 Payment -145   3786 Credit Card
212 Nancy  Semple 09/21/2019 Payment -105   3835 Credit Card
213 Iram  Ali 10/07/2019 Payment -120   3904 Credit Card
214 Michael  Conrad 10/09/2019 Payment -156   3915 Credit Card
229 Betty Kaplin 01/02/2019 Payment -84.14   2726 Jobber Payments
230 Steven Hastings 01/02/2019 Payment -129   2730 Jobber Payments
231 Dave Barnett 01/03/2019 Payment -157.62   2728 Jobber Payments
232 Lori Keaton 01/03/2019 Payment -161   2734 Jobber Payments
233 Richard Cen Chen 01/03/2019 Payment -186.38   2729 Jobber Payments
234 Gregory  Cook 01/03/2019 Payment -73.49   2727 Jobber Payments
235 George Liu 01/03/2019 Payment -244   2733 Jobber Payments
236 Jill White 01/03/2019 Payment -126.74   2737 Jobber Payments
237 Terica Hudson-Phillips 01/03/2019 Payment -101.7   2738 Jobber Payments
238 Natasha T Bordes 01/04/2019 Payment -255   2740 Jobber Payments
239 Ray  Ortiz 01/04/2019 Payment -180   2739 Jobber Payments
240 Frank Marra 01/04/2019 Payment -121   2741 Jobber Payments
241 Dawn  Mccauley 01/04/2019 Payment -50   2744 Jobber Payments
242 James Andrew McKowen 01/04/2019 Payment -121   2745 Jobber Payments
243 Dina Carlson 01/05/2019 Payment -139   2743 Jobber Payments
244 Daniel de Paz 01/05/2019 Payment -107   2748 Jobber Payments
245 Linda Sivesind 01/06/2019 Payment -149   2751 Jobber Payments
246 Indra Bhawanie 01/07/2019 Payment -50   2753 Jobber Payments
247 George Liu 01/07/2019 Payment -244   2752 Jobber Payments
248 Leandro Teles 01/07/2019 Payment -99   2746 Jobber Payments
249 Mallory Pastureau 01/07/2019 Payment -128   2755 Jobber Payments
250 Tony  Rose 01/07/2019 Payment -196   2756 Jobber Payments
251 Lori Keaton 01/08/2019 Payment -171.47   2757 Jobber Payments
252 Michelle  Rainone 01/08/2019 Payment -324   2759 Jobber Payments
253 Peter Ganpat 01/08/2019 Payment -147   2758 Jobber Payments
254 Veronica Lac 01/09/2019 Payment -135   2762 Jobber Payments
255 Liz Giffin 01/09/2019 Payment -110   2763 Jobber Payments
256 Bishestha 01/09/2019 Payment -200   2768 Jobber Payments
257 Betty Kaplin 01/09/2019 Payment -79   2767 Jobber Payments
258 Marie Milia 01/09/2019 Payment -109   2766 Jobber Payments
259 Amy Carr 01/09/2019 Payment -109   2764 Jobber Payments
260 Kim Bennett 01/09/2019 Payment -99   2769 Jobber Payments
261 Tracy McDonald Ashe 01/09/2019 Payment -99   2765 Jobber Payments
262 Leandro Teles 01/09/2019 Payment -99   2760 Jobber Payments
263 Alex Herbert 01/10/2019 Payment -90   2771 Jobber Payments
264 Sean and Jey Bolton 01/10/2019 Payment -280   2772 Jobber Payments
265 Fernanda Freitas 01/10/2019 Payment -120   2770 Jobber Payments
266 Jasmine  Swenson 01/11/2019 Payment -178   2774 Jobber Payments
267 Michelle Cavanaugh 01/11/2019 Payment -50   2775 Jobber Payments
268 Carrie Gittings 01/11/2019 Payment -118   2777 Jobber Payments
269 Matthew Kiep 01/11/2019 Payment -129   2778 Jobber Payments
270 Leandro Teles 01/12/2019 Payment -99   2779 Jobber Payments
271 Sonia  Rivas 01/14/2019 Payment -230   2784 Jobber Payments
272 Michael Napoleon 01/14/2019 Payment -206   2785 Jobber Payments
273 Barbara Hehl 01/14/2019 Payment -441   2786 Jobber Payments
274 Candy DeVore 01/14/2019 Payment -139   2783 Jobber Payments
275 Michael  Hernandez 01/14/2019 Payment -215   2781 Jobber Payments
276 Lauren Ellen 01/14/2019 Payment -187   2787 Jobber Payments
277 Heidi  Lamoreaux 01/15/2019 Payment -345   2789 Jobber Payments
278 Quinton Hall 01/15/2019 Payment -50   2791 Jobber Payments
279 Valerie  Miller Bean 01/15/2019 Payment -115   2792 Jobber Payments
280 Helen Lynch 01/15/2019 Payment -109   2788 Jobber Payments
281 Tracy West 01/16/2019 Payment -94.5   2794 Jobber Payments
282 Tamisha Watson 01/16/2019 Payment -405   2798 Jobber Payments
284 Betty Kaplin 01/16/2019 Payment -79   2800 Jobber Payments
285 Ola Terry 01/17/2019 Payment -85   2802 Jobber Payments
286 Ray  Ortiz 01/17/2019 Payment -135   2803 Jobber Payments
287 Curtis White 01/18/2019 Payment -120   2807 Jobber Payments
288 Lori Rivero 01/18/2019 Payment -310   2809 Jobber Payments
289 Jill White 01/18/2019 Payment -126.74   2801 Jobber Payments
290 Leandro Teles 01/18/2019 Payment -99   2810 Jobber Payments
291 Tamisha Watson 01/18/2019 Payment -300   2812 Jobber Payments
292 Barbara Hehl 01/18/2019 Payment -60   2813 Jobber Payments
293 Daniel de Paz 01/19/2019 Payment -107   2814 Jobber Payments
294 Dina Carlson 01/19/2019 Payment -139   2808 Jobber Payments
295 Erin Caneza 01/19/2019 Payment -608   2815 Jobber Payments
296 Sabrina Gasca 01/19/2019 Payment -169   2816 Jobber Payments
297 Tracy  Watson 01/21/2019 Payment -347   2817 Jobber Payments
298 Jayme Taylor 01/21/2019 Payment -306   2818 Jobber Payments
299 Valiere Joseph 01/21/2019 Payment -485   2819 Jobber Payments
300 Charles and Stacey 01/22/2019 Payment -217   2821 Jobber Payments
301 Leandro Teles 01/22/2019 Payment -99   2822 Jobber Payments
302 Tracy McDonald Ashe 01/23/2019 Payment -99   2824 Jobber Payments
303 Jose Gonzalez 01/23/2019 Payment -95   2825 Jobber Payments
304 Veronica Lac 01/23/2019 Payment -135   2823 Jobber Payments
305 Heidi Broom 01/23/2019 Payment -145   2826 Jobber Payments
306 Peter Ganpat 01/23/2019 Payment -107.57   2830 Jobber Payments
308 Betty Kaplin 01/23/2019 Payment -79   2829 Jobber Payments
309 David Pierce 01/23/2019 Payment -135   2832 Jobber Payments
311 Marie Milia 01/24/2019 Payment -109   2828 Jobber Payments
312 Sean and Jey Bolton 01/24/2019 Payment -200   2835 Jobber Payments
313 Helen Lynch 01/24/2019 Payment -109   2836 Jobber Payments
314 Lori Keaton 01/24/2019 Payment -171.47   2837 Jobber Payments
315 Sue  Turner 01/24/2019 Payment -135   2833 Jobber Payments
316 Fernanda Freitas 01/24/2019 Payment -120   2834 Jobber Payments
317 Adam Valentin 01/24/2019 Payment -324   2840 Jobber Payments
318 Terica Hudson-Phillips 01/24/2019 Payment -113   2838 Jobber Payments
319 Simone Smyth 01/25/2019 Payment -347   2843 Jobber Payments
320 Michael  Hernandez 01/25/2019 Payment -89   2844 Jobber Payments
321 Carrie Gittings 01/25/2019 Payment -118   2845 Jobber Payments
323 Leandro Teles 01/25/2019 Payment -99   2846 Jobber Payments
324 James Collier 01/26/2019 Payment -194   2850 Jobber Payments
325 Nicole Rothstein 01/26/2019 Payment -192   2847 Jobber Payments
326 David  Speach 01/28/2019 Payment -122   2856 Jobber Payments
327 Felicia  Bunbury 01/28/2019 Payment -155   2859 Jobber Payments
328 Helen Lynch 01/28/2019 Payment -109   2861 Jobber Payments
329 James Benbow 01/28/2019 Payment -109   2852 Jobber Payments
330 Ricardo  Matos 01/28/2019 Payment -386   2851 Jobber Payments
331 Matthew Cullyvan 01/29/2019 Payment -200   2865 Jobber Payments
332 Rod  Studer 01/29/2019 Payment -263   2866 Jobber Payments
333 Billy Jones 01/29/2019 Payment -99   2864 Jobber Payments
334 Leandro Teles 01/29/2019 Payment -99   2867 Jobber Payments
335 Yolanda Redd 01/30/2019 Payment -159   2869 Jobber Payments
336 Kim Bennett 01/30/2019 Payment -99   2871 Jobber Payments
337 Howard Johnson 01/30/2019 Payment -189   2874 Jobber Payments
338 Betty Kaplin 01/30/2019 Payment -79   2872 Jobber Payments
339 Julie  Stjuste 01/31/2019 Payment -284   2876 Jobber Payments
340 Steven Hastings 01/31/2019 Payment -129   2875 Jobber Payments
341 Justin Long 02/01/2019 Payment -89   2854 Jobber Payments
342 Iris  Isaac 02/01/2019 Payment -75   2877 Jobber Payments
343 Tracy West 02/01/2019 Payment -189   2878 Jobber Payments
344 Leandro Teles 02/01/2019 Payment -99   2879 Jobber Payments
345 Giri  Saravanan 02/01/2019 Payment -149   2880 Jobber Payments
346 Ashleigh  Gonzalez 02/02/2019 Payment -262   2881 Jobber Payments
347 Scott James 02/02/2019 Payment -807   2883 Jobber Payments
348 Daniel de Paz 02/02/2019 Payment -107   2882 Jobber Payments
349 Curtis White 02/02/2019 Payment -120   2884 Jobber Payments
350 Ray  Ortiz 02/02/2019 Payment -167   2886 Jobber Payments
351 Dian S. Gantt 02/02/2019 Payment -193   2887 Jobber Payments
352 Lori Keaton 02/04/2019 Payment -96.6   2888 Jobber Payments
353 Dina Carlson 02/04/2019 Payment -139   2889 Jobber Payments
354 Lori Keaton 02/04/2019 Payment -161   2891 Jobber Payments
355 Rebecca Hoffpauir 02/05/2019 Payment -115   2892 Jobber Payments
356 Loveland Properties 02/05/2019 Payment -455   2890 Jobber Payments
357 Michael Napoleon 02/05/2019 Payment -164   2894 Jobber Payments
359 Leandro Teles 02/05/2019 Payment -99   2893 Jobber Payments
360 David Pierce 02/06/2019 Payment -100   2899 Jobber Payments
361 Amy Carr 02/06/2019 Payment -109   2897 Jobber Payments
362 Peter Ganpat 02/06/2019 Payment -147   2898 Jobber Payments
363 Ricardo  Matos 02/06/2019 Payment -145   2900 Jobber Payments
364 Betty Kaplin 02/06/2019 Payment -79   2901 Jobber Payments
365 Mary  Foster 02/07/2019 Payment -299   2902 Jobber Payments
366 Helen Lynch 02/07/2019 Payment -109   2895 Jobber Payments
367 Veronica Lac 02/07/2019 Payment -135   2904 Jobber Payments
368 Jill White 02/07/2019 Payment -126.74   2903 Jobber Payments
369 Fernanda Freitas 02/07/2019 Payment -120   2905 Jobber Payments
370 Dawn  Mccauley 02/08/2019 Payment -256   2906 Jobber Payments
371 Carrie Gittings 02/08/2019 Payment -118   2907 Jobber Payments
372 Jennifer Ralston 02/08/2019 Payment -144   2908 Jobber Payments
374 Leandro Teles 02/08/2019 Payment -99   2909 Jobber Payments
375 Matthew Kiep 02/08/2019 Payment -129   2910 Jobber Payments
376 Diane  Field 02/08/2019 Payment -311   2911 Jobber Payments
377 Khloe  Swiatek 02/09/2019 Payment -128   2913 Jobber Payments
378 Elvin Charity 02/09/2019 Payment -169   2914 Jobber Payments
379 Liz Giffin 02/11/2019 Payment -110   2917 Jobber Payments
380 Nadia Choudhury 02/11/2019 Payment -166   2916 Jobber Payments
381 Maria Cabral 02/11/2019 Payment -167.21   2912 Jobber Payments
382 Libardo Lambrano 02/12/2019 Payment -129   2919 Jobber Payments
383 Leandro Teles 02/12/2019 Payment -99   2918 Jobber Payments
384 Tracy McDonald Ashe 02/13/2019 Payment -99   2921 Jobber Payments
385 Helen Lynch 02/13/2019 Payment -109   2925 Jobber Payments
386 Betty Kaplin 02/13/2019 Payment -79   2926 Jobber Payments
387 Marie Milia 02/13/2019 Payment -109   2927 Jobber Payments
388 Lori Keaton 02/13/2019 Payment -171.47   2924 Jobber Payments
389 Terica Hudson-Phillips 02/14/2019 Payment -113   2930 Jobber Payments
390 Paige Gonzalez 02/14/2019 Payment -96   2931 Jobber Payments
391 Sean and Jey Bolton 02/15/2019 Payment -200   2932 Jobber Payments
392 Tiffany Komendat 02/15/2019 Payment -120   2933 Jobber Payments
393 Denis  Larscheid 02/15/2019 Payment -281   2934 Jobber Payments
394 Steven Hastings 02/15/2019 Payment -150   2936 Jobber Payments
395 Leandro Teles 02/15/2019 Payment -99   2937 Jobber Payments
396 Dina Carlson 02/15/2019 Payment -139   2938 Jobber Payments
397 Wendi  Reisch 02/16/2019 Payment -120   2942 Jobber Payments
401 Helen Lynch 02/17/2019 Payment -109   2940 Jobber Payments
402 Linda Sivesind 02/19/2019 Payment -149   2947 Jobber Payments
403 Heidi  Lamoreaux 02/19/2019 Payment -345   2946 Jobber Payments
405 Jason  Taliaferro 02/19/2019 Payment -237   2950 Jobber Payments
406 Jose Gonzalez 02/19/2019 Payment -95   2939 Jobber Payments
407 Leandro Teles 02/19/2019 Payment -99   2949 Jobber Payments
408 Fernando Orsini 02/20/2019 Payment -179   2860 Jobber Payments
409 Veronica Lac 02/20/2019 Payment -135   2954 Jobber Payments
410 Ricardo  Matos 02/20/2019 Payment -145   2956 Jobber Payments
411 Diane  Krimko 02/20/2019 Payment -239   2958 Jobber Payments
412 Lori Keaton 02/20/2019 Payment -171.47   2959 Jobber Payments
413 Peter Ganpat 02/21/2019 Payment -107.57   2952 Jobber Payments
414 Kim Bennett 02/21/2019 Payment -99   2955 Jobber Payments
415 Betty Kaplin 02/21/2019 Payment -79   2957 Jobber Payments
416 David Pierce 02/21/2019 Payment -100   2960 Jobber Payments
417 Vency Varughese 02/21/2019 Payment -320   2963 Jobber Payments
418 Ray  Ortiz 02/21/2019 Payment -135   2964 Jobber Payments
419 Jill White 02/21/2019 Payment -126.74   2961 Jobber Payments
420 Andrew Hall 02/21/2019 Payment -248.8   2965 Jobber Payments
421 James  Christie 02/22/2019 Payment -50   2966 Jobber Payments
422 Carrie Gittings 02/22/2019 Payment -118   2967 Jobber Payments
423 Jabeen  Khan 02/22/2019 Payment -89   2968 Jobber Payments
424 Henry  Patel 02/22/2019 Payment -341   2971 Jobber Payments
425 Amy K.  Gaskin 02/23/2019 Payment -224   2973 Jobber Payments
426 Jayme Taylor 02/23/2019 Payment -277   2974 Jobber Payments
427 James  Christie 02/23/2019 Payment -353   2975 Jobber Payments
428 Leandro Teles 02/25/2019 Payment -99   2970 Jobber Payments
429 Jasmine  Swenson 02/26/2019 Payment -142   2977 Jobber Payments
430 Katherine  West 02/27/2019 Payment -150   2979 Jobber Payments
431 Marie Milia 02/27/2019 Payment -50   2980 Jobber Payments
432 Charles and Stacey 02/27/2019 Payment -173   2981 Jobber Payments
433 Leandro Teles 02/27/2019 Payment -99   2978 Jobber Payments
434 Jenna Taub 02/27/2019 Payment -274   2985 Jobber Payments
435 Deborah Butler 02/28/2019 Payment -64   2986 Jobber Payments
436 Sean and Jey Bolton 02/28/2019 Payment -200   2987 Jobber Payments
437 Nicole Rothstein 02/28/2019 Payment -97   2988 Jobber Payments
438 Milton  Wiggins 02/28/2019 Payment -149   2992 Jobber Payments
439 Steven Hastings 02/28/2019 Payment -140   2989 Jobber Payments
440 Felicia  Bunbury 02/28/2019 Payment -124   2990 Jobber Payments
441 Betty Kaplin 02/28/2019 Payment -79   2993 Jobber Payments
442 Juel  Swanston 03/01/2019 Payment -231   2994 Jobber Payments
443 Tracy  Watson 03/01/2019 Payment -149   2995 Jobber Payments
444 Dina Carlson 03/01/2019 Payment -139   2997 Jobber Payments
445 Curtis White 03/01/2019 Payment -150   2998 Jobber Payments
446 Leandro Teles 03/01/2019 Payment -99   2996 Jobber Payments
447 Daniel de Paz 03/02/2019 Payment -107   2999 Jobber Payments
448 Eugenie  James 03/02/2019 Payment -192   3000 Jobber Payments
449 Tiffany  M. Moore 03/02/2019 Payment -80   3001 Jobber Payments
450 Leo  Cantidus 03/02/2019 Payment -189   3002 Jobber Payments
451 Helen Lynch 03/02/2019 Payment -109   3003 Jobber Payments
452 Mallory Pastureau 03/04/2019 Payment -160   3006 Jobber Payments
453 Ben Damery 03/04/2019 Payment -148   3007 Jobber Payments
454 Peter Ganpat 03/05/2019 Payment -147   3010 Jobber Payments
455 Leandro Teles 03/05/2019 Payment -99   3011 Jobber Payments
456 Michael Napoleon 03/05/2019 Payment -164   3012 Jobber Payments
457 Linda Sivesind 03/06/2019 Payment -149   3013 Jobber Payments
458 David Pierce 03/06/2019 Payment -100   3017 Jobber Payments
459 Amy Carr 03/06/2019 Payment -109   3014 Jobber Payments
460 Tracy McDonald Ashe 03/06/2019 Payment -99   3016 Jobber Payments
461 Ricardo  Matos 03/06/2019 Payment -145   3018 Jobber Payments
462 Manny  Marrero 03/07/2019 Payment -96   3020 Jobber Payments
463 Lori Keaton 03/07/2019 Payment -191   3021 Jobber Payments
464 Jill White 03/07/2019 Payment -126.74   3019 Jobber Payments
465 Ray  Ortiz 03/07/2019 Payment -135   3022 Jobber Payments
466 Terica Hudson-Phillips 03/07/2019 Payment -113   3023 Jobber Payments
467 Betty Kaplin 03/07/2019 Payment -79   3024 Jobber Payments
468 Nicole Rothstein 03/08/2019 Payment -97   3025 Jobber Payments
469 Matthew Kiep 03/08/2019 Payment -129   3026 Jobber Payments
470 Carrie Gittings 03/08/2019 Payment -118   3027 Jobber Payments
471 14 West Administrative Services 03/08/2019 Payment -159   3029 Jobber Payments
472 Leandro Teles 03/08/2019 Payment -99   3030 Jobber Payments
473 Tracy West 03/08/2019 Payment -189   3031 Jobber Payments
474 Shara  Navarrete 03/09/2019 Payment -323   3032 Jobber Payments
475 Helen Lynch 03/09/2019 Payment -109   3033 Jobber Payments
476 James Benbow 03/11/2019 Payment -109   3034 Jobber Payments
477 Lori Keaton 03/11/2019 Payment -161   3035 Jobber Payments
478 Jason  Taliaferro 03/11/2019 Payment -115   3036 Jobber Payments
479 David  Cohen 03/11/2019 Payment -144   3037 Jobber Payments
480 Steve Brown 03/12/2019 Payment -333   3038 Jobber Payments
481 Jackie  Martinez 03/12/2019 Payment -384   3039 Jobber Payments
482 Leandro Teles 03/12/2019 Payment -99   3040 Jobber Payments
483 Michael Callahan 03/13/2019 Payment -355   3044 Jobber Payments
484 Anika  Jones 03/13/2019 Payment -427   3045 Jobber Payments
485 Sean and Jey Bolton 03/14/2019 Payment -200   3046 Jobber Payments
486 Sarah Reyes 03/14/2019 Payment -270   3047 Jobber Payments
487 Betty Kaplin 03/14/2019 Payment -79   3049 Jobber Payments
488 Leandro Teles 03/15/2019 Payment -99   3051 Jobber Payments
489 Justin  Cyr 03/15/2019 Payment -231   3052 Jobber Payments
490 Shayna  Castano 03/15/2019 Payment -180   3053 Jobber Payments
491 Daniel de Paz 03/16/2019 Payment -107   3054 Jobber Payments
492 Dylan  Conner 03/16/2019 Payment -221   3055 Jobber Payments
493 Carrie Fuhr 03/16/2019 Payment -270   3056 Jobber Payments
494 Luis Rios 03/18/2019 Payment -233.15   3058 Jobber Payments
495 Dolly Majum 03/18/2019 Payment -165   3059 Jobber Payments
496 Orazio  Tartaglia 03/19/2019 Payment -293   3061 Jobber Payments
497 Heidi  Lamoreaux 03/19/2019 Payment -25   3062 Jobber Payments
498 Leandro Teles 03/19/2019 Payment -99   3063 Jobber Payments
499 Tania Draskovic 03/19/2019 Payment -250   3064 Jobber Payments
500 Kayla  Brown 03/20/2019 Payment -237   3065 Jobber Payments
501 Marie Milia 03/20/2019 Payment -25   3066 Jobber Payments
502 Kristina Portantino 03/20/2019 Payment -283   3067 Jobber Payments
503 Peter Ganpat 03/20/2019 Payment -107.57   3068 Jobber Payments
504 Kim Bennett 03/20/2019 Payment -99   3069 Jobber Payments
506 Jill White 03/21/2019 Payment -25   3072 Jobber Payments
507 Bonnie Betz 03/21/2019 Payment -128   3073 Jobber Payments
508 Itay  Landsman 03/21/2019 Payment -96   3075 Jobber Payments
509 Nicole Rothstein 03/22/2019 Payment -97   3076 Jobber Payments
510 Heidi  Lamoreaux 03/22/2019 Payment -345   3078 Jobber Payments
511 14 West Administrative Services 03/22/2019 Payment -128   3079 Jobber Payments
512 Leandro Teles 03/22/2019 Payment -99   3080 Jobber Payments
513 Andrew Bonczyk 03/22/2019 Payment -592   3081 Jobber Payments
516 Mike  Schorn 03/23/2019 Payment -249   3085 Jobber Payments
517 Jomeera Mahone 03/24/2019 Payment -129   3086 Jobber Payments
518 Adel Amadour 03/24/2019 Payment -236.01   3087 Jobber Payments
519 Jason  Taliaferro 03/25/2019 Payment -85   3089 Jobber Payments
520 Tiffany Komendat 03/25/2019 Payment -120   3090 Jobber Payments
521 Tracy McDonald Ashe 03/26/2019 Payment -99   3091 Jobber Payments
522 Valerie  Miller Bean 03/26/2019 Payment -115   3092 Jobber Payments
523 Charles and Stacey 03/26/2019 Payment -173   3093 Jobber Payments
524 Steven Hastings 03/26/2019 Payment -140   3094 Jobber Payments
525 Ariel  Guzman 03/26/2019 Payment -170   3095 Jobber Payments
526 Leandro Teles 03/26/2019 Payment -99   3096 Jobber Payments
527 Helen Lynch 03/27/2019 Payment -168   3083 Jobber Payments
528 Kristine Sardisco 03/27/2019 Payment -109   3097 Jobber Payments
529 Ricardo  Matos 03/27/2019 Payment -145   3098 Jobber Payments
530 David Pierce 03/27/2019 Payment -100   3099 Jobber Payments
532 Sean and Jey Bolton 03/28/2019 Payment -200   3102 Jobber Payments
533 Bernardo  De Lucia 03/28/2019 Payment -109   3104 Jobber Payments
535 Ross  Whitley 03/28/2019 Payment -204   3105 Jobber Payments
536 Lindsay Waybright 03/28/2019 Payment -160   3106 Jobber Payments
537 Renee  Boesch 03/29/2019 Payment -230   3107 Jobber Payments
538 Danielle Phillips 03/29/2019 Payment -229   3108 Jobber Payments
539 Leandro Teles 03/29/2019 Payment -99   3111 Jobber Payments
540 Jayme Taylor 03/29/2019 Payment -277   3112 Jobber Payments
541 Yolanda Redd 03/29/2019 Payment -168   3113 Jobber Payments
542 Brittany  Button 03/30/2019 Payment -281   3114 Jobber Payments
543 Jose Garcia 03/30/2019 Payment -179.6   3115 Jobber Payments
544 Karen  Dillard 03/30/2019 Payment -356   3117 Jobber Payments
545 Betty Kaplin 04/01/2019 Payment -79   3118 Jobber Payments
546 Helen Lynch 04/01/2019 Payment -168   3119 Jobber Payments
547 Marc  Cerio 04/01/2019 Payment -495   3120 Jobber Payments
548 14 West Administrative Services 04/02/2019 Payment -221   3121 Jobber Payments
549 Kathy  Castillo 04/02/2019 Payment -347   3123 Jobber Payments
550 Cynthia  Strickland 04/02/2019 Payment -124   3124 Jobber Payments
551 Michael Napoleon 04/02/2019 Payment -164   3125 Jobber Payments
552 Peter Ganpat 04/03/2019 Payment -147   3126 Jobber Payments
553 Dorothy  Shoffner 04/03/2019 Payment -240   3127 Jobber Payments
554 Kim Bennett 04/03/2019 Payment -99   3128 Jobber Payments
555 Monika Martinez 04/03/2019 Payment -129   3129 Jobber Payments
556 Zena Slaughter 04/03/2019 Payment -258   3130 Jobber Payments
557 Amy Carr 04/03/2019 Payment -109   3131 Jobber Payments
558 Jill White 04/04/2019 Payment -126.74   3135 Jobber Payments
559 Bill Chenail 04/04/2019 Payment -128   3136 Jobber Payments
560 Sanjay Kumar 04/05/2019 Payment -50   3138 Jobber Payments
561 Nicole Rothstein 04/05/2019 Payment -97   3139 Jobber Payments
562 Carrie Gittings 04/05/2019 Payment -118   3140 Jobber Payments
563 Curtis White 04/05/2019 Payment -150   3142 Jobber Payments
564 Eve Gayle 04/05/2019 Payment -130   3144 Jobber Payments
565 Nakita Jenkins 04/05/2019 Payment -150   3145 Jobber Payments
566 Trudy Kay Pottinger 04/05/2019 Payment -128   3146 Jobber Payments
567 Daniel de Paz 04/06/2019 Payment -107   3147 Jobber Payments
568 Iva  Slavtcheva 04/06/2019 Payment -234   3148 Jobber Payments
569 Helen Lynch 04/06/2019 Payment -168   3149 Jobber Payments
570 Valerie  Miller Bean 04/06/2019 Payment -115   3150 Jobber Payments
571 Felicia  Bunbury 04/06/2019 Payment -124   3151 Jobber Payments
572 Laura Aldridge 04/08/2019 Payment -183   3152 Jobber Payments
573 Jason  Taliaferro 04/08/2019 Payment -115   3153 Jobber Payments
574 Adel Amadour 04/09/2019 Payment -60   3154 Jobber Payments
575 Patricia Martin 04/09/2019 Payment -290   3155 Jobber Payments
576 Nadia Choudhury 04/09/2019 Payment -166   3156 Jobber Payments
577 Lauren Ellen 04/09/2019 Payment -187   3157 Jobber Payments
578 David Pierce 04/10/2019 Payment -100   3159 Jobber Payments
579 Wayne Residence 04/10/2019 Payment -173   3160 Jobber Payments
580 Steven Hastings 04/10/2019 Payment -140   3161 Jobber Payments
581 Anthony  Flamand 04/10/2019 Payment -537   3162 Jobber Payments
582 Sean and Jey Bolton 04/11/2019 Payment -200   3165 Jobber Payments
583 Tracy West 04/11/2019 Payment -25   3158 Jobber Payments
584 Bernardo  De Lucia 04/11/2019 Payment -90   3166 Jobber Payments
585 Diane  Field 04/11/2019 Payment -311   3167 Jobber Payments
586 Felicia  Bernal 04/11/2019 Payment -181   3168 Jobber Payments
587 Jean Rivero 04/11/2019 Payment -372.71   3170 Jobber Payments
588 Betty Kaplin 04/11/2019 Payment -79   3171 Jobber Payments
589 Rose Fletcher 04/12/2019 Payment -152   3172 Jobber Payments
590 Ricardo Henriquez 04/12/2019 Payment -256   3173 Jobber Payments
591 Lois and Lawrence  Thomas 04/12/2019 Payment -141   3174 Jobber Payments
592 Nicole Links 04/12/2019 Payment -169   3175 Jobber Payments
593 Tracy West 04/12/2019 Payment -189   3176 Jobber Payments
594 Lisa  Drotar 04/13/2019 Payment -258   3177 Jobber Payments
595 James Benbow 04/14/2019 Payment -109   3178 Jobber Payments
596 Alana  Kennedy 04/15/2019 Payment -226   3179 Jobber Payments
597 Stephanie Bloom 04/16/2019 Payment -50   3180 Jobber Payments
598 Kathy  Castillo 04/16/2019 Payment -90   3181 Jobber Payments
599 Larbi i Akhouya 04/16/2019 Payment -84   3182 Jobber Payments
600 Heidi  Lamoreaux 04/16/2019 Payment -345   3183 Jobber Payments
601 Kristine Sardisco 04/17/2019 Payment -139   3184 Jobber Payments
602 Tracy McDonald Ashe 04/17/2019 Payment -99   3185 Jobber Payments
603 Shayna  Castano 04/17/2019 Payment -150   3186 Jobber Payments
604 Peter Ganpat 04/17/2019 Payment -107.57   3187 Jobber Payments
605 Marian Dean 04/17/2019 Payment -169   3188 Jobber Payments
606 Bonnie Betz 04/18/2019 Payment -120   3189 Jobber Payments
607 Betty Kaplin 04/18/2019 Payment -79   3190 Jobber Payments
608 Nakita Jenkins 04/18/2019 Payment -120   3191 Jobber Payments
609 Jill White 04/18/2019 Payment -126.74   3192 Jobber Payments
610 Matthew Kiep 04/19/2019 Payment -129   3193 Jobber Payments
611 Carrie Gittings 04/19/2019 Payment -118   3194 Jobber Payments
612 Holley Hagerman 04/19/2019 Payment -85   3196 Jobber Payments
613 Keith Levasseur 04/19/2019 Payment -230   3197 Jobber Payments
614 Moshe Seffer 04/19/2019 Payment -164   3198 Jobber Payments
615 Jessica  Thielen 04/19/2019 Payment -339.8   3199 Jobber Payments
616 Curtis White 04/20/2019 Payment -150   3200 Jobber Payments
617 David  Lifshitz 04/22/2019 Payment -224   3204 Jobber Payments
618 Valerie  Miller Bean 04/22/2019 Payment -115   3205 Jobber Payments
619 Jason  Taliaferro 04/22/2019 Payment -85   3206 Jobber Payments
620 Moshe Seffer 04/22/2019 Payment -209   3207 Jobber Payments
621 Hadascha  Nicolas 04/23/2019 Payment -30   3208 Jobber Payments
622 Dee Wagner 04/23/2019 Payment -112   3209 Jobber Payments
623 Helen Lynch 04/23/2019 Payment -168   3202 Jobber Payments
624 Laura Aldridge 04/23/2019 Payment -96   3211 Jobber Payments
625 Sean and Jey Bolton 04/24/2019 Payment -200   3213 Jobber Payments
626 David Pierce 04/24/2019 Payment -100   3214 Jobber Payments
628 Moshe Seffer 04/25/2019 Payment -50   3217 Jobber Payments
629 Kathy  Ehrhart 04/25/2019 Payment -234   3218 Jobber Payments
630 Steven Hastings 04/25/2019 Payment -140   3219 Jobber Payments
631 Bernardo  De Lucia 04/25/2019 Payment -90   3220 Jobber Payments
632 Maggie  Sanderon 04/25/2019 Payment -328   3222 Jobber Payments
633 Betty Kaplin 04/25/2019 Payment -79   3223 Jobber Payments
634 Lynett Welch 04/25/2019 Payment -162   3224 Jobber Payments
635 Nicole Rothstein 04/26/2019 Payment -194   3226 Jobber Payments
636 Rose Fletcher 04/26/2019 Payment -144   3229 Jobber Payments
637 Kim Bennett 04/26/2019 Payment -99   3230 Jobber Payments
638 Marilyn Gerena 04/26/2019 Payment -277   3231 Jobber Payments
639 David  Lifshitz 04/26/2019 Payment -224   3232 Jobber Payments
640 Bryan Bierd 04/26/2019 Payment -376   3233 Jobber Payments
641 Nicole Links 04/26/2019 Payment -127   3225 Jobber Payments
642 Felicia  Bunbury 04/27/2019 Payment -124   3234 Jobber Payments
643 David  Lifshitz 04/27/2019 Payment -112   3235 Jobber Payments
644 Daniel de Paz 04/27/2019 Payment -107   3237 Jobber Payments
645 Jayme Taylor 04/27/2019 Payment -277   3236 Jobber Payments
646 Paul  Hanzel 04/29/2019 Payment -237   3238 Jobber Payments
647 Dan  Wessner 04/29/2019 Payment -120   3239 Jobber Payments
648 Kathy  Castillo 04/30/2019 Payment -90   3241 Jobber Payments
649 Helen Lynch 04/30/2019 Payment -168   3242 Jobber Payments
650 Trudy Kay Pottinger 05/01/2019 Payment -25   3243 Jobber Payments
651 Malvy  Cherrie Chavez 05/01/2019 Payment -261   3244 Jobber Payments
652 Eva  Mcclover 05/01/2019 Payment -199   3245 Jobber Payments
653 Amy Carr 05/01/2019 Payment -197   3246 Jobber Payments
654 Peter Ganpat 05/01/2019 Payment -147   3247 Jobber Payments
655 Jacob Weinstein 05/01/2019 Payment -96   3248 Jobber Payments
656 Bill Buckley 05/02/2019 Payment -50   3249 Jobber Payments
657 Jessica  Thielen 05/02/2019 Payment -123   3250 Jobber Payments
658 Jill White 05/02/2019 Payment -126.74   3251 Jobber Payments
660 Betty Kaplin 05/02/2019 Payment -79   3255 Jobber Payments
662 Rachel  Rodriguez 05/03/2019 Payment -50   3256 Jobber Payments
663 Monica Sham 05/03/2019 Payment -96   3257 Jobber Payments
664 Carrie Gittings 05/03/2019 Payment -118   3258 Jobber Payments
665 Victor  Caceres 05/03/2019 Payment -64   3259 Jobber Payments
666 Kiri Elliott 05/03/2019 Payment -330   3260 Jobber Payments
667 14 West Administrative Services 05/03/2019 Payment -103   3261 Jobber Payments
668 Holley Hagerman 05/03/2019 Payment -84   3262 Jobber Payments
669 Nakita Jenkins 05/04/2019 Payment -120   3264 Jobber Payments
670 Diana Medina 05/04/2019 Payment -96   3265 Jobber Payments
671 Valerie  Miller Bean 05/04/2019 Payment -115   3266 Jobber Payments
672 Helen Lynch 05/04/2019 Payment -168   3267 Jobber Payments
673 Marie Milia 05/04/2019 Payment -1   3254 Jobber Payments
675 Renee Spangenberg 05/06/2019 Payment -25   3268 Jobber Payments
676 Marta Kelly 05/06/2019 Payment -200   3269 Jobber Payments
677 Carson Flint 05/06/2019 Payment -176   3270 Jobber Payments
678 Laura Aldridge 05/07/2019 Payment -96   3271 Jobber Payments
679 Lauren Szazynski 05/07/2019 Payment -379   3273 Jobber Payments
680 Lucy Cruz 05/07/2019 Payment -407   3274 Jobber Payments
681 Kristine Sardisco 05/08/2019 Payment -155   3276 Jobber Payments
682 David Pierce 05/08/2019 Payment -100   3277 Jobber Payments
683 Nahir Rivera 05/08/2019 Payment -227   3279 Jobber Payments
684 Steven Hastings 05/08/2019 Payment -140   3280 Jobber Payments
685 Lyndie Bacchus 05/08/2019 Payment -147   3281 Jobber Payments
686 Sean and Jey Bolton 05/09/2019 Payment -200   3283 Jobber Payments
687 Tracy  Watson 05/09/2019 Payment -196   3285 Jobber Payments
688 Betty Kaplin 05/09/2019 Payment -79   3288 Jobber Payments
689 Patricia Martin 05/09/2019 Payment -150   3289 Jobber Payments
690 Nicole Links 05/10/2019 Payment -127   3290 Jobber Payments
691 Matthew Kiep 05/10/2019 Payment -129   3291 Jobber Payments
692 Rose Fletcher 05/10/2019 Payment -114   3292 Jobber Payments
693 Nicole Rothstein 05/10/2019 Payment -97   3293 Jobber Payments
694 Tracy West 05/10/2019 Payment -189   3294 Jobber Payments
695 Michael Napoleon 05/10/2019 Payment -164   3295 Jobber Payments
696 14 West Administrative Services 05/11/2019 Payment -103   3296 Jobber Payments
697 Avianne Been 05/11/2019 Payment -228   3297 Jobber Payments
698 Helen Lynch 05/11/2019 Payment -168   3298 Jobber Payments
699 Billi Stone 05/11/2019 Payment -199   3299 Jobber Payments
700 Jason  Taliaferro 05/13/2019 Payment -50   3300 Jobber Payments
701 Daniel de Paz 05/13/2019 Payment -107   3301 Jobber Payments
702 Bernardo  De Lucia 05/14/2019 Payment -90   3302 Jobber Payments
703 Mariya Kristeva 05/14/2019 Payment -50   3304 Jobber Payments
704 Linda  Telafort 05/14/2019 Payment -96   3305 Jobber Payments
705 Anthony  Flamand 05/14/2019 Payment -315   3306 Jobber Payments
706 Renee Spangenberg 05/14/2019 Payment -25   3307 Jobber Payments
707 Lisa Renee Johnson 05/14/2019 Payment -240   3309 Jobber Payments
708 Priya  Mallick 05/14/2019 Payment -129   3310 Jobber Payments
710 Shayna  Castano 05/15/2019 Payment -120   3312 Jobber Payments
711 Tanya  Glauber 05/15/2019 Payment -240   3313 Jobber Payments
712 Peter Ganpat 05/15/2019 Payment -107.57   3314 Jobber Payments
714 Kim Bennett 05/15/2019 Payment -99   3315 Jobber Payments
715 Carrie Gittings 05/15/2019 Payment -118   3316 Jobber Payments
716 Bonnie Betz 05/16/2019 Payment -25   3317 Jobber Payments
717 Helen Lynch 05/16/2019 Payment -168   3318 Jobber Payments
718 Betty Kaplin 05/16/2019 Payment -79   3319 Jobber Payments
719 Tracy McDonald Ashe 05/16/2019 Payment -99   3321 Jobber Payments
720 Kristine Giles 05/17/2019 Payment -192   3324 Jobber Payments
721 Nakita Jenkins 05/17/2019 Payment -120   3325 Jobber Payments
722 Holley Hagerman 05/17/2019 Payment -84   3326 Jobber Payments
723 Lindsey  Plumley 05/17/2019 Payment -348   3327 Jobber Payments
724 Aaron Wilson 05/18/2019 Payment -180   3328 Jobber Payments
725 Jessica  Thielen 05/18/2019 Payment -92   3329 Jobber Payments
726 Kristen  Roy 05/18/2019 Payment -240   3330 Jobber Payments
727 14 West Administrative Services 05/18/2019 Payment -103   3331 Jobber Payments
728 Brent Gaubatz 05/18/2019 Payment -144   3332 Jobber Payments
729 Melissa Arguello 05/20/2019 Payment -275   3333 Jobber Payments
730 Daniel Gabrinski 05/20/2019 Payment -267   3335 Jobber Payments
731 Sheaulee  Ng 05/20/2019 Payment -120   3336 Jobber Payments
732 Laura Aldridge 05/21/2019 Payment -96   3338 Jobber Payments
733 Douglas  Brennan 05/21/2019 Payment -575   3340 Jobber Payments
734 Kristine Sardisco 05/22/2019 Payment -140   3342 Jobber Payments
735 David Pierce 05/22/2019 Payment -100   3343 Jobber Payments
736 Robert  O'Brien 05/22/2019 Payment -225   3344 Jobber Payments
737 Maggie  Sanderon 05/22/2019 Payment -103   3345 Jobber Payments
740 Sean and Jey Bolton 05/23/2019 Payment -200   3348 Jobber Payments
741 Marta Kelly 05/23/2019 Payment -106   3349 Jobber Payments
742 Bernardo  De Lucia 05/23/2019 Payment -90   3350 Jobber Payments
743 Knud  Gacoms 05/23/2019 Payment -482   3351 Jobber Payments
744 Betty Kaplin 05/23/2019 Payment -79   3352 Jobber Payments
745 Jill White 05/24/2019 Payment -26.63   3355 Jobber Payments
746 Wendi  Reisch 05/24/2019 Payment -204   3356 Jobber Payments
747 Amanda Harley 05/24/2019 Payment -198   3357 Jobber Payments
748 Rose Fletcher 05/24/2019 Payment -114   3358 Jobber Payments
749 Nicole Links 05/24/2019 Payment -127   3359 Jobber Payments
750 14 West Administrative Services 05/24/2019 Payment -103   3361 Jobber Payments
751 Kam McSwain 05/25/2019 Payment -163   3363 Jobber Payments
752 Beverly L.  Cruz 05/25/2019 Payment -212   3364 Jobber Payments
753 Daniel de Paz 05/25/2019 Payment -25   3365 Jobber Payments
754 Jayme Taylor 05/25/2019 Payment -277   3366 Jobber Payments
755 Helen Lynch 05/27/2019 Payment -168   3367 Jobber Payments
756 James Benbow 05/27/2019 Payment -218   3368 Jobber Payments
757 Kathryn Keillor 05/27/2019 Payment -25   3369 Jobber Payments
758 Sheila  Burgner 05/28/2019 Payment -50   3370 Jobber Payments
759 Felicia  Bunbury 05/28/2019 Payment -124   3371 Jobber Payments
760 Jacquattta Simmons 05/28/2019 Payment -25   3372 Jobber Payments
761 Renee Spangenberg 05/28/2019 Payment -50   3373 Jobber Payments
762 Enriqueta Casanueva 05/28/2019 Payment -261   3374 Jobber Payments
763 Amy Carr 05/29/2019 Payment -109   3376 Jobber Payments
764 Gerry Wilkerson 05/29/2019 Payment -210   3377 Jobber Payments
765 Joshua  Sterling 05/29/2019 Payment -253   3378 Jobber Payments
766 Shannon Morris 05/30/2019 Payment -50   3379 Jobber Payments
767 Jessica  Thielen 05/30/2019 Payment -246   3380 Jobber Payments
768 Yolanda Redd 05/30/2019 Payment -168   3381 Jobber Payments
769 Betty Kaplin 05/30/2019 Payment -79   3382 Jobber Payments
771 James  Christie 05/30/2019 Payment -120   3385 Jobber Payments
772 Dolly Majum 05/31/2019 Payment -165   3386 Jobber Payments
773 Brad  Higginbotham 05/31/2019 Payment -153   3387 Jobber Payments
774 Lindsey  Plumley 05/31/2019 Payment -148   3383 Jobber Payments
775 Richard Rutledge 05/31/2019 Payment -172   3389 Jobber Payments
776 Nicole Rothstein 05/31/2019 Payment -97   3390 Jobber Payments
777 Hanson  Nguyen 05/31/2019 Payment -246   3391 Jobber Payments
778 Nakita Jenkins 05/31/2019 Payment -120   3392 Jobber Payments
779 14 West Administrative Services 05/31/2019 Payment -103   3393 Jobber Payments
780 Trudy Kay Pottinger 06/01/2019 Payment -128   3396 Jobber Payments
781 Helen Lynch 06/03/2019 Payment -168   3397 Jobber Payments
782 Kim Bennett 06/03/2019 Payment -25   3398 Jobber Payments
783 Richard Rutledge 06/03/2019 Payment -172   3399 Jobber Payments
784 Kristen Helmers 06/03/2019 Payment -332   3401 Jobber Payments
785 Jeremy Noller 06/03/2019 Payment -415   3403 Jobber Payments
786 Laura Aldridge 06/04/2019 Payment -96   3404 Jobber Payments
787 Coral  Tirado 06/04/2019 Payment -215   3406 Jobber Payments
788 Dale G  Puch 06/05/2019 Payment -339   3407 Jobber Payments
789 David Pierce 06/05/2019 Payment -100   3408 Jobber Payments
790 Kristine Sardisco 06/05/2019 Payment -140   3409 Jobber Payments
791 Bernardo  De Lucia 06/06/2019 Payment -90   3412 Jobber Payments
792 Sean and Jey Bolton 06/06/2019 Payment -200   3413 Jobber Payments
793 Marta Kelly 06/06/2019 Payment -106   3414 Jobber Payments
794 Deighton  Heywood 06/06/2019 Payment -341   3416 Jobber Payments
795 Liz Giffin 06/07/2019 Payment -219   3419 Jobber Payments
796 Tracy West 06/07/2019 Payment -189   3420 Jobber Payments
797 Rose Fletcher 06/07/2019 Payment -114   3421 Jobber Payments
798 Tiffany Komendat 06/07/2019 Payment -120   3422 Jobber Payments
799 John  Dechmerowski 06/07/2019 Payment -196   3423 Jobber Payments
800 Valerie  Miller Bean 06/07/2019 Payment -115   3424 Jobber Payments
801 14 West Administrative Services 06/08/2019 Payment -103   3425 Jobber Payments
802 Michael Napoleon 06/08/2019 Payment -164   3426 Jobber Payments
803 Daniel de Paz 06/08/2019 Payment -107   3427 Jobber Payments
804 Lindsay Waybright 06/08/2019 Payment -160   3428 Jobber Payments
805 Helen Lynch 06/10/2019 Payment -168   3429 Jobber Payments
806 Bonnie Betz 06/10/2019 Payment -120   3431 Jobber Payments
807 Nadia Choudhury 06/11/2019 Payment -166   3432 Jobber Payments
808 Shayna  Castano 06/12/2019 Payment -25   3434 Jobber Payments
810 Scott James 06/12/2019 Payment -478   3436 Jobber Payments
811 Conley  Braun 06/13/2019 Payment -91   3437 Jobber Payments
812 Bennet Parke 06/13/2019 Payment -138   3438 Jobber Payments
813 Helen Lynch 06/13/2019 Payment -168   3439 Jobber Payments
814 Patricia Martin 06/13/2019 Payment -150   3440 Jobber Payments
815 Betty Kaplin 06/13/2019 Payment -79   3441 Jobber Payments
816 Nicole Rothstein 06/14/2019 Payment -97   3443 Jobber Payments
817 Nakita Jenkins 06/14/2019 Payment -120   3444 Jobber Payments
818 Adrianne Kim 06/14/2019 Payment -236   3445 Jobber Payments
819 Kristen  Roy 06/15/2019 Payment -124   3447 Jobber Payments
820 14 West Administrative Services 06/15/2019 Payment -103   3448 Jobber Payments
821 Nayticcies E  Smart 06/15/2019 Payment -318   3449 Jobber Payments
822 Vickie  Cartwrighd 06/15/2019 Payment -360   3450 Jobber Payments
823 Hannah Kelsie-Marie  Matosky 06/15/2019 Payment -253   3451 Jobber Payments
824 Laura Aldridge 06/17/2019 Payment -25   3452 Jobber Payments
825 Lester Yu 06/17/2019 Payment -90   3454 Jobber Payments
826 Cathy Cooper 06/17/2019 Payment -240   3455 Jobber Payments
827 Jeanna  Davenport 06/18/2019 Payment -249   3457 Jobber Payments
828 Diane  Field 06/18/2019 Payment -311   3458 Jobber Payments
829 Marianne  Lawlor 06/19/2019 Payment -35   3459 Jobber Payments
830 Kristine Sardisco 06/19/2019 Payment -140   3460 Jobber Payments
831 David Pierce 06/19/2019 Payment -100   3461 Jobber Payments
832 Leann Bergeson 06/19/2019 Payment -203   3462 Jobber Payments
833 Lumi  Rivera 06/19/2019 Payment -299   3463 Jobber Payments
834 Maggie  Sanderon 06/19/2019 Payment -103   3465 Jobber Payments
835 Bernardo  De Lucia 06/20/2019 Payment -90   3467 Jobber Payments
836 Sean and Jey Bolton 06/20/2019 Payment -200   3468 Jobber Payments
837 Marianne  Lawlor 06/20/2019 Payment -220   3469 Jobber Payments
838 Betty Kaplin 06/20/2019 Payment -79   3471 Jobber Payments
839 Matthew Kiep 06/21/2019 Payment -129   3472 Jobber Payments
840 Rose Fletcher 06/21/2019 Payment -114   3473 Jobber Payments
841 Michael Kurtz 06/21/2019 Payment -133   3474 Jobber Payments
842 Kathryn Keillor 06/21/2019 Payment -372   3475 Jobber Payments
843 Daniel de Paz 06/21/2019 Payment -35   3476 Jobber Payments
844 Christopher Myrold 06/21/2019 Payment -266   3477 Jobber Payments
845 Jayme Taylor 06/22/2019 Payment -277   3480 Jobber Payments
846 Farah Cruz 06/23/2019 Payment -254   3481 Jobber Payments
847 Marian Zable 06/23/2019 Payment -160   3482 Jobber Payments
848 Jessica  Thielen 06/24/2019 Payment -123   3483 Jobber Payments
849 Beck Tokhtaev 06/24/2019 Payment -225   3484 Jobber Payments
850 Sarah  Stone 06/25/2019 Payment -218   3487 Jobber Payments
851 Beck Tokhtaev 06/25/2019 Payment -30   3488 Jobber Payments
852 Ryan Sherry 06/25/2019 Payment -176   3489 Jobber Payments
853 Helen Lynch 06/26/2019 Payment -35   3485 Jobber Payments
854 Amy Carr 06/26/2019 Payment -109   3490 Jobber Payments
855 Elissa-ann Buckley 06/26/2019 Payment -103   3491 Jobber Payments
856 Kedron Elliott 06/26/2019 Payment -192   3492 Jobber Payments
857 Conley  Braun 06/27/2019 Payment -84   3493 Jobber Payments
858 Gowtham  Ponnusamy 06/27/2019 Payment -98   3494 Jobber Payments
859 Marta Kelly 06/27/2019 Payment -106   3495 Jobber Payments
860 Kathleen Tole 06/27/2019 Payment -128   3496 Jobber Payments
861 Betty Kaplin 06/27/2019 Payment -79   3497 Jobber Payments
862 Wendy  Dong 06/27/2019 Payment -186   3498 Jobber Payments
863 Jeremiah Miller 06/27/2019 Payment -180   3499 Jobber Payments
864 Nicole Rothstein 06/28/2019 Payment -97   3501 Jobber Payments
865 Nakita Jenkins 06/28/2019 Payment -120   3502 Jobber Payments
866 Rande  Gross 06/28/2019 Payment -248   3503 Jobber Payments
867 Helen Lynch 06/28/2019 Payment -168   3504 Jobber Payments
868 Devendra Persaud 06/28/2019 Payment -168   3505 Jobber Payments
869 Deborah Knighton 06/29/2019 Payment -50   3506 Jobber Payments
870 Kimberly Johnson 06/29/2019 Payment -326   3507 Jobber Payments
871 Octavia Black 06/29/2019 Payment -286   3508 Jobber Payments
872 Jake Demitros 06/30/2019 Payment -180   3512 Jobber Payments
873 Michelle  Offutt 06/30/2019 Payment -180   3513 Jobber Payments
874 Robert Walls 06/30/2019 Payment -229   3514 Jobber Payments
875 Ryan  Callahan 07/01/2019 Payment -322   3515 Jobber Payments
876 Angela Bier 07/01/2019 Payment -210   3516 Jobber Payments
877 Jasmine  Swenson 07/01/2019 Payment -273   3517 Jobber Payments
878 Iva  Slavtcheva 07/01/2019 Payment -249   3518 Jobber Payments
879 James Charles 07/02/2019 Payment -50   3520 Jobber Payments
880 Danielle Lindsay 07/02/2019 Payment -127   3521 Jobber Payments
881 Kristine Sardisco 07/03/2019 Payment -140   3522 Jobber Payments
882 Paul Hogaboom 07/03/2019 Payment -120   3523 Jobber Payments
883 Lindsey  Plumley 07/03/2019 Payment -133   3524 Jobber Payments
884 Nick Synko 07/03/2019 Payment -106   3525 Jobber Payments
885 David Pierce 07/03/2019 Payment -100   3526 Jobber Payments
886 Marcey Barton 07/03/2019 Payment -98   3528 Jobber Payments
887 Sean and Jey Bolton 07/04/2019 Payment -200   3529 Jobber Payments
888 Charles  Lewis 07/04/2019 Payment -132   3530 Jobber Payments
889 James Charles 07/04/2019 Payment -221   3531 Jobber Payments
890 Daryna Delpadre 07/05/2019 Payment -50   3532 Jobber Payments
891 Bernardo  De Lucia 07/05/2019 Payment -90   3533 Jobber Payments
892 Marcia Toliver 07/05/2019 Payment -192   3535 Jobber Payments
893 Cindy  Hall-Kirby 07/06/2019 Payment -48   3537 Jobber Payments
894 Noel  White 07/08/2019 Payment -174   3541 Jobber Payments
895 Shayna  Castano 07/09/2019 Payment -25   3542 Jobber Payments
898 Lindsey Miller 07/09/2019 Payment -240   3544 Jobber Payments
899 Helen Lynch 07/09/2019 Payment -168   3545 Jobber Payments
900 Michael Napoleon 07/09/2019 Payment -164   3546 Jobber Payments
902 Jessica  Thielen 07/10/2019 Payment -123   3550 Jobber Payments
903 Bennet Parke 07/10/2019 Payment -110   3552 Jobber Payments
904 Lauren Ellen 07/10/2019 Payment -187   3553 Jobber Payments
905 Conley  Braun 07/11/2019 Payment -84   3554 Jobber Payments
906 Marianne  Lawlor 07/11/2019 Payment -120   3555 Jobber Payments
907 Alicia  Falendysz 07/12/2019 Payment -403   3556 Jobber Payments
908 Marta Kelly 07/12/2019 Payment -106   3557 Jobber Payments
909 Patricia Martin 07/12/2019 Payment -150   3558 Jobber Payments
910 Matthew Kiep 07/12/2019 Payment -129   3559 Jobber Payments
911 Chanel Lindor 07/12/2019 Payment -50   3560 Jobber Payments
912 Rose Fletcher 07/12/2019 Payment -90   3562 Jobber Payments
913 Nakita Jenkins 07/12/2019 Payment -120   3564 Jobber Payments
914 Ryan Sherry 07/12/2019 Payment -176   3565 Jobber Payments
915 Elvin Charity 07/13/2019 Payment -253   3566 Jobber Payments
916 Nicole Rothstein 07/15/2019 Payment -97   3567 Jobber Payments
918 Bonnie Betz 07/15/2019 Payment -120   3569 Jobber Payments
919 Jayme Taylor 07/15/2019 Payment -277   3570 Jobber Payments
923 Betty Kaplin 07/15/2019 Payment -79   3573 Jobber Payments
924 Laura Aldridge 07/16/2019 Payment -96   3574 Jobber Payments
926 Nancy  Pilote 07/16/2019 Payment -168   3576 Jobber Payments
933 Leann Bergeson 07/17/2019 Payment -162   3577 Jobber Payments
934 David Pierce 07/17/2019 Payment -100   3578 Jobber Payments
935 Kristine Sardisco 07/17/2019 Payment -140   3579 Jobber Payments
936 Sarah Adams 07/17/2019 Payment -248   3580 Jobber Payments
937 Kiri Elliott 07/17/2019 Payment -264   3581 Jobber Payments
938 Bernardo  De Lucia 07/18/2019 Payment -90   3582 Jobber Payments
940 14 West Administrative Services 07/19/2019 Payment -137   3584 Jobber Payments
941 Chanel Lindor 07/19/2019 Payment -372   3585 Jobber Payments
942 Jessica Hetherington 07/19/2019 Payment -140   3586 Jobber Payments
944 Kristen  Roy 07/20/2019 Payment -124   3587 Jobber Payments
945 Chun Liang 07/20/2019 Payment -256   3589 Jobber Payments
946 Tyler Nelson 07/21/2019 Payment -277   3590 Jobber Payments
947 Nick Moser 07/21/2019 Payment -334   3591 Jobber Payments
949 Tommie Barlow 07/22/2019 Payment -96   3592 Jobber Payments
950 Jessica  Thielen 07/22/2019 Payment -123   3593 Jobber Payments
952 Amy Carr 07/24/2019 Payment -109   3595 Jobber Payments
953 Christina  Davis 07/24/2019 Payment -50   3596 Jobber Payments
954 Emily  Woolaver 07/24/2019 Payment -295   3597 Jobber Payments
955 Sarah  Stone 07/24/2019 Payment -150   3598 Jobber Payments
956 Cynthia  Strickland 07/25/2019 Payment -124   3599 Jobber Payments
957 Anthony Zirfas 07/25/2019 Payment -329   3600 Jobber Payments
958 Ray  Ortiz 07/25/2019 Payment -160   3594 Jobber Payments
959 Loveland Properties 07/25/2019 Payment -135   3563 Jobber Payments
961 Marianne  Lawlor 07/25/2019 Payment -120   3601 Jobber Payments
962 Marta Kelly 07/25/2019 Payment -106   3602 Jobber Payments
963 Nia  Seaford 07/25/2019 Payment -310   3603 Jobber Payments
964 Marcia Mathews 07/25/2019 Payment -150   3604 Jobber Payments
965 Betty Kaplin 07/25/2019 Payment -79   3605 Jobber Payments
966 Maurice  Williams 07/25/2019 Payment -122   3606 Jobber Payments
967 Yolanda  Powell 07/26/2019 Payment -90   3607 Jobber Payments
968 Nicole Rothstein 07/26/2019 Payment -97   3609 Jobber Payments
969 Conley  Braun 07/26/2019 Payment -84   3608 Jobber Payments
970 Nakita Jenkins 07/26/2019 Payment -120   3611 Jobber Payments
971 Nicholas  Tocco 07/26/2019 Payment -223   3612 Jobber Payments
972 Ginelle  Carrington 07/26/2019 Payment -173   3613 Jobber Payments
973 Ryan Sherry 07/27/2019 Payment -176   3615 Jobber Payments
974 Valerie  Ismail 07/27/2019 Payment -146   3616 Jobber Payments
975 Tommie Barlow 07/29/2019 Payment -96   3620 Jobber Payments
976 Mandy  France 07/29/2019 Payment -220   3622 Jobber Payments
977 Nancy  Pilote 07/29/2019 Payment -168   3623 Jobber Payments
978 Carolyn L  McIntyre 07/29/2019 Payment -192   3624 Jobber Payments
979 Marta Kelly 07/29/2019 Payment -153   3625 Jobber Payments
980 Isabel Blanco 07/29/2019 Payment -469   3618 Jobber Payments
981 Lester Yu 07/30/2019 Payment -90   3626 Jobber Payments
982 Laura Aldridge 07/30/2019 Payment -96   3628 Jobber Payments
983 Steve  Brundage 07/30/2019 Payment -255   3629 Jobber Payments
984 Yolanda Redd 07/30/2019 Payment -168   3630 Jobber Payments
985 Sujal Kotadia 07/31/2019 Payment -238   3631 Jobber Payments
987 Kristine Sardisco 07/31/2019 Payment -140   3633 Jobber Payments
988 David Pierce 07/31/2019 Payment -100   3634 Jobber Payments
989 Tarah Jeannot 07/31/2019 Payment -96   3627 Jobber Payments
990 Elizabeth  Kirkland 08/01/2019 Payment -179   3635 Jobber Payments
991 Lois Knudson 08/01/2019 Payment -150   3636 Jobber Payments
992 Jennifer  Ross 08/01/2019 Payment -449   3637 Jobber Payments
993 Nancy  Pilote 08/01/2019 Payment -168   3638 Jobber Payments
994 Bruce Patterson 08/02/2019 Payment -327   3640 Jobber Payments
995 Valerie  Miller Bean 08/02/2019 Payment -196   3641 Jobber Payments
996 Anjali  Alexander 08/02/2019 Payment -90   3642 Jobber Payments
997 Heather  Cisler 08/02/2019 Payment -160   3643 Jobber Payments
998 Phillip Presume 08/02/2019 Payment -218   3644 Jobber Payments
999 Marcos  Segovia 08/03/2019 Payment -150   3645 Jobber Payments
1000 Beth  Otworth 08/03/2019 Payment -120   3646 Jobber Payments
1002 Betty Kaplin 08/04/2019 Payment -79   3647 Jobber Payments
1003 Santosh  Kalanadhabatta 08/04/2019 Payment -151   3648 Jobber Payments
1004 James Benbow 08/04/2019 Payment -109   3649 Jobber Payments
1005 Ziana Bagot 08/05/2019 Payment -160   3650 Jobber Payments
1006 Tommie Barlow 08/05/2019 Payment -96   3651 Jobber Payments
1007 Jessica  Thielen 08/05/2019 Payment -123   3653 Jobber Payments
1008 Tracy West 08/05/2019 Payment -50   3655 Jobber Payments
1010 Bernardo  De Lucia 08/07/2019 Payment -90   3657 Jobber Payments
1011 Nancy  Pilote 08/07/2019 Payment -253   3658 Jobber Payments
1012 Douglas  Chamberlain 08/07/2019 Payment -188   3660 Jobber Payments
1013 Caroline Malaugh 08/07/2019 Payment -35   3661 Jobber Payments
1014 Misty  Brown 08/08/2019 Payment -214   3662 Jobber Payments
1015 Marta Kelly 08/08/2019 Payment -106   3663 Jobber Payments
1016 Alicica  Jackson 08/08/2019 Payment -155   3664 Jobber Payments
1017 Marianne  Lawlor 08/09/2019 Payment -120   3665 Jobber Payments
1018 Bennet Parke 08/09/2019 Payment -110   3666 Jobber Payments
1019 Saba and  Allan McDonald 08/09/2019 Payment -90   3639 Jobber Payments
1020 Nicole Rothstein 08/09/2019 Payment -97   3667 Jobber Payments
1021 Matthew Kiep 08/09/2019 Payment -129   3668 Jobber Payments
1022 Kimberly Mcnutt 08/09/2019 Payment -210   3670 Jobber Payments
1023 Adriana  Thumann 08/09/2019 Payment -364   3672 Jobber Payments
1024 Frederick Marshall 08/10/2019 Payment -144   3673 Jobber Payments
1026 Andrea  Levin 08/10/2019 Payment -196   3669 Jobber Payments
1027 Autumn  Kelley 08/10/2019 Payment -160   3675 Jobber Payments
1028 Nancy  Pilote 08/12/2019 Payment -168   3676 Jobber Payments
1029 Jim  Kasch 08/12/2019 Payment -239   3679 Jobber Payments
1030 Tommie Barlow 08/12/2019 Payment -96   3680 Jobber Payments
1031 14 West Administrative Services 08/13/2019 Payment -109   3682 Jobber Payments
1032 Nadia Choudhury 08/13/2019 Payment -166   3683 Jobber Payments
1033 Patricia Martin 08/13/2019 Payment -150   3684 Jobber Payments
1034 Uri Bar 08/13/2019 Payment -465   3685 Jobber Payments
1035 Emily Denton 08/14/2019 Payment -139   3686 Jobber Payments
1036 Bhanu  Dave 08/14/2019 Payment -147   3687 Jobber Payments
1037 Kristine Sardisco 08/14/2019 Payment -140   3688 Jobber Payments
1038 David Pierce 08/14/2019 Payment -100   3689 Jobber Payments
1039 Leon  Lachance 08/14/2019 Payment -268   3690 Jobber Payments
1041 Simone Smyth 08/15/2019 Payment -331   3693 Jobber Payments
1042 Flavio  Kertzman 08/15/2019 Payment -151   3695 Jobber Payments
1043 Jennifer Lall 08/15/2019 Payment -130   3696 Jobber Payments
1044 Jem  Dawodu 08/16/2019 Payment -151   3694 Jobber Payments
1046 Darlene  Hunter 08/17/2019 Payment -318   3698 Jobber Payments
1047 Jordan  Crandall 08/17/2019 Payment -150   3699 Jobber Payments
1049 Tommie Barlow 08/19/2019 Payment -96   3700 Jobber Payments
1050 Jessica  Thielen 08/19/2019 Payment -123   3701 Jobber Payments
1051 Bonnie Betz 08/19/2019 Payment -120   3702 Jobber Payments
1052 Betty Kaplin 08/19/2019 Payment -79   3703 Jobber Payments
1053 Bernardo  De Lucia 08/20/2019 Payment -50   3705 Jobber Payments
1054 Valerie  Miller Bean 08/20/2019 Payment -115   3706 Jobber Payments
1055 Chloe  Joseph 08/20/2019 Payment -263   3707 Jobber Payments
1056 Nancy  Pilote 08/20/2019 Payment -253   3708 Jobber Payments
1057 Amy Carr 08/21/2019 Payment -109   3709 Jobber Payments
1058 Fransico  Cacdres 08/21/2019 Payment -209   3711 Jobber Payments
1059 Devin Downing 08/22/2019 Payment -311   3712 Jobber Payments
1060 Marianne  Lawlor 08/22/2019 Payment -120   3713 Jobber Payments
1061 Marta Kelly 08/22/2019 Payment -106   3714 Jobber Payments
1062 Marcia Mathews 08/22/2019 Payment -120   3715 Jobber Payments
1063 John Buraty 08/22/2019 Payment -158   3716 Jobber Payments
1064 Doug Gagliano 08/22/2019 Payment -138   3717 Jobber Payments
1065 Shondra  Sullivan 08/22/2019 Payment -350   3718 Jobber Payments
1066 Shannon  Ferringer 08/23/2019 Payment -462   3719 Jobber Payments
1067 Michelle  Bartell 08/23/2019 Payment -253   3720 Jobber Payments
1068 Debra  James 08/23/2019 Payment -138   3721 Jobber Payments
1069 Aaron  Hendershot 08/23/2019 Payment -90   3723 Jobber Payments
1070 Nicole Rothstein 08/23/2019 Payment -97   3724 Jobber Payments
1071 Subhar  Chudga 08/23/2019 Payment -224   3725 Jobber Payments
1072 Memori Chambers 08/23/2019 Payment -277   3726 Jobber Payments
1073 Madison  Eouse 08/24/2019 Payment -156   3728 Jobber Payments
1074 Betty Kaplin 08/24/2019 Payment -79   3729 Jobber Payments
1075 Nina  Oniell 08/24/2019 Payment -240   3730 Jobber Payments
1076 Subhar  Chudga 08/25/2019 Payment -224   3731 Jobber Payments
1077 Tommie Barlow 08/26/2019 Payment -96   3733 Jobber Payments
1078 Subhar  Chudga 08/26/2019 Payment -224   3735 Jobber Payments
1079 Diane  Krimko 08/26/2019 Payment -230   3736 Jobber Payments
1080 Tyler  Jackson 08/26/2019 Payment -109   3738 Jobber Payments
1081 Joey Mitchell 08/26/2019 Payment -280   3739 Jobber Payments
1082 Subhar  Chudga 08/26/2019 Payment -224   3740 Jobber Payments
1083 Gary  Ricozzi 08/27/2019 Payment -317   3741 Jobber Payments
1084 Mike  Morales 08/27/2019 Payment -120   3742 Jobber Payments
1085 Stacy  Bands 08/27/2019 Payment -520   3744 Jobber Payments
1086 Laura Aldridge 08/27/2019 Payment -180   3745 Jobber Payments
1087 Kristine Sardisco 08/28/2019 Payment -140   3746 Jobber Payments
1088 Jim  Kasch 08/28/2019 Payment -179   3747 Jobber Payments
1089 Sarah  Stone 08/28/2019 Payment -150   3748 Jobber Payments
1090 Leann Bergeson 08/28/2019 Payment -162   3749 Jobber Payments
1091 Nancy  Pilote 08/29/2019 Payment -168   3751 Jobber Payments
1092 Stephanie  Thompson 08/29/2019 Payment -119   3754 Jobber Payments
1094 Autumn  Cedolia 08/30/2019 Payment -224   3757 Jobber Payments
1095 Angela  Roach 08/30/2019 Payment -158   3758 Jobber Payments
1096 Moema  Arruda 08/30/2019 Payment -235   3759 Jobber Payments
1097 Frank Gay Services 08/30/2019 Payment -360   3760 Jobber Payments
1098 Nancy  Pilote 08/30/2019 Payment -70   3761 Jobber Payments
1099 Darius  Nall 08/30/2019 Payment -168   3762 Jobber Payments
1101 Naima  Sacks 08/31/2019 Payment -250   3215 Jobber Payments
1102 George  Tola 08/31/2019 Payment -294   3763 Jobber Payments
1103 Marianne  Lawlor 09/05/2019 Payment -120   3765 Jobber Payments
1104 Michael Kurtz 09/05/2019 Payment -224   3766 Jobber Payments
1105 Cynthia  Strickland 09/05/2019 Payment -124   3767 Jobber Payments
1106 LeAnne  Sevier 09/05/2019 Payment -143   3768 Jobber Payments
1107 Marta Kelly 09/05/2019 Payment -106   3769 Jobber Payments
1108 Ryan Sherry 09/06/2019 Payment -176   3770 Jobber Payments
1109 Nicole Rothstein 09/06/2019 Payment -97   3771 Jobber Payments
1110 Phillip Presume 09/06/2019 Payment -174   3772 Jobber Payments
1111 Tommie Barlow 09/06/2019 Payment -96   3773 Jobber Payments
1112 Frederick Marshall 09/06/2019 Payment -35   3774 Jobber Payments
1113 Marta Kelly 09/07/2019 Payment -112   3776 Jobber Payments
1114 Stamina  Edmond 09/07/2019 Payment -226   3777 Jobber Payments
1115 Lindsay Waybright 09/07/2019 Payment -235   3778 Jobber Payments
1116 Lea  Warren 09/07/2019 Payment -180   3779 Jobber Payments
1117 Betty Kaplin 09/09/2019 Payment -79   3780 Jobber Payments
1118 David  Welsh 09/09/2019 Payment -151   3781 Jobber Payments
1119 Tommie Barlow 09/09/2019 Payment -96   3782 Jobber Payments
1120 Caroline Poole 09/09/2019 Payment -211   3783 Jobber Payments
1121 Laura Aldridge 09/10/2019 Payment -120   3785 Jobber Payments
1122 Amanda  Beatrice 09/10/2019 Payment -354   3787 Jobber Payments
1124 Erin  long 09/11/2019 Payment -90   3788 Jobber Payments
1125 Kristine Sardisco 09/11/2019 Payment -140   3789 Jobber Payments
1126 Helen  Lannuier 09/11/2019 Payment -222   3790 Jobber Payments
1127 Michael Callahan 09/11/2019 Payment -372   3791 Jobber Payments
1128 Jim  Kasch 09/11/2019 Payment -179   3793 Jobber Payments
1129 Beth  Otworth 09/11/2019 Payment -120   3794 Jobber Payments
1130 Christy  Shultz 09/12/2019 Payment -247   3796 Jobber Payments
1131 Patricia Martin 09/12/2019 Payment -150   3797 Jobber Payments
1132 Jonathan Jacobs 09/12/2019 Payment -114   3798 Jobber Payments
1133 Brittany  Franxman 09/13/2019 Payment -306   3799 Jobber Payments
1134 Bhanu  Dave 09/13/2019 Payment -118   3800 Jobber Payments
1135 Frederick Marshall 09/13/2019 Payment -144   3801 Jobber Payments
1136 Ross Kamela 09/13/2019 Payment -210   3803 Jobber Payments
1139 Bennet Parke 09/14/2019 Payment -110   3805 Jobber Payments
1140 James Benbow 09/14/2019 Payment -112   3806 Jobber Payments
1141 Candice  Wilson 09/14/2019 Payment -218   3807 Jobber Payments
1142 Betty Kaplin 09/14/2019 Payment -79   3808 Jobber Payments
1143 Dj  Townsel 09/14/2019 Payment -231   3809 Jobber Payments
1144 Lindsay Waybright 09/16/2019 Payment -150   3810 Jobber Payments
1145 Ryan  Hojnacki 09/16/2019 Payment -175   3812 Jobber Payments
1146 Tommie Barlow 09/16/2019 Payment -96   3813 Jobber Payments
1147 Bonnie Betz 09/16/2019 Payment -120   3814 Jobber Payments
1148 Jill  Esposito 09/16/2019 Payment -166   3815 Jobber Payments
1149 Juan  Ysea 09/16/2019 Payment -193   3816 Jobber Payments
1150 Nancy  Pilote 09/17/2019 Payment -168   3818 Jobber Payments
1151 Marta Kelly 09/17/2019 Payment -106   3819 Jobber Payments
1152 Mildred Diaz 09/17/2019 Payment -116   3817 Jobber Payments
1153 Mike  Higgins 09/17/2019 Payment -217   3820 Jobber Payments
1154 Devin Downing 09/17/2019 Payment -444   3821 Jobber Payments
1155 David Pierce 09/18/2019 Payment -100   3822 Jobber Payments
1156 Amy Carr 09/18/2019 Payment -109   3823 Jobber Payments
1157 Sayeda Ghani 09/18/2019 Payment -254   3824 Jobber Payments
1160 Debra  James 09/19/2019 Payment -110   3826 Jobber Payments
1161 Diane  Field 09/19/2019 Payment -311   3827 Jobber Payments
1162 Yolanda Redd 09/20/2019 Payment -168   3828 Jobber Payments
1163 Nicole Rothstein 09/20/2019 Payment -97   3829 Jobber Payments
1164 Kimberly  Furr-Lobin 09/20/2019 Payment -145   3830 Jobber Payments
1167 Mark  McConahy 09/20/2019 Payment -120   3832 Jobber Payments
1168 Amy  Gilman 09/21/2019 Payment -201   3834 Jobber Payments
1169 Lindsay Waybright 09/21/2019 Payment -232   3836 Jobber Payments
1170 Kathy  Harris 09/23/2019 Payment -150   3838 Jobber Payments
1171 David  Welsh 09/23/2019 Payment -120   3839 Jobber Payments
1172 Tommie Barlow 09/23/2019 Payment -96   3840 Jobber Payments
1173 Hector Villarroel 09/23/2019 Payment -373   3841 Jobber Payments
1174 Moema  Arruda 09/23/2019 Payment -188   3842 Jobber Payments
1175 Sharon  Brandt 09/23/2019 Payment -350   3843 Jobber Payments
1176 Tyler  Jackson 09/23/2019 Payment -109   3844 Jobber Payments
1177 Laura  Finley 09/24/2019 Payment -210   3845 Jobber Payments
1178 Laura Aldridge 09/24/2019 Payment -120   3846 Jobber Payments
1179 Paul  Nelson 09/24/2019 Payment -145   3848 Jobber Payments
1180 Sueleen  Wetherell 09/24/2019 Payment -377   3849 Jobber Payments
1181 Erin  long 09/25/2019 Payment -35   3850 Jobber Payments
1182 Sarah  Stone 09/25/2019 Payment -150   3851 Jobber Payments
1183 Kristine Sardisco 09/25/2019 Payment -140   3852 Jobber Payments
1184 Marianne  Lawlor 09/25/2019 Payment -120   3853 Jobber Payments
1185 Nina  Oniell 09/25/2019 Payment -280   3854 Jobber Payments
1186 Jim  Kasch 09/25/2019 Payment -179   3856 Jobber Payments
1187 Nicole  Copare 09/26/2019 Payment -90   3859 Jobber Payments
1188 Sterling  Brown 09/26/2019 Payment -120   3860 Jobber Payments
1189 Noelle  Randall 09/26/2019 Payment -297   3858 Jobber Payments
1190 Marcia Mathews 09/26/2019 Payment -134   3861 Jobber Payments
1191 Marcia Mathews 09/26/2019 Payment -207   3862 Jobber Payments
1192 Angela  Roach 09/27/2019 Payment -126   3863 Jobber Payments
1193 Guianna cruz  Jimenez 09/27/2019 Payment -129   3864 Jobber Payments
1194 Erin  long 09/27/2019 Payment -90   3865 Jobber Payments
1195 Zaneta  Castillo 09/27/2019 Payment -158   3866 Jobber Payments
1196 Iva  Slavtcheva 09/28/2019 Payment -234   3868 Jobber Payments
1197 Joyce  Nadeos 09/30/2019 Payment -429   3869 Jobber Payments
1198 Frantz  Brignol 09/30/2019 Payment -50   3871 Jobber Payments
1199 Nancy  Pilote 09/30/2019 Payment -168   3872 Jobber Payments
1200 Heather  Cisler 09/30/2019 Payment -128   3873 Jobber Payments
1201 Betty Kaplin 09/30/2019 Payment -84   3874 Jobber Payments
1202 Shannon Nolan and Chris Hashman 09/30/2019 Payment -35   3875 Jobber Payments
1203 Geoff  Bacon 09/30/2019 Payment -389   3870 Jobber Payments
1204 Caroline Malaugh 09/30/2019 Payment -129   3876 Jobber Payments
1205 Tommie Barlow 09/30/2019 Payment -96   3877 Jobber Payments
1206 Ernest  Westerhold 09/30/2019 Payment -210   3879 Jobber Payments
1207 Kandy  Bustos 09/30/2019 Payment -367   3878 Jobber Payments
1208 Cynthia  Strickland 09/30/2019 Payment -50   3880 Jobber Payments
1209 Leann Bergeson 09/30/2019 Payment -162   3881 Jobber Payments
1210 David Pierce 10/02/2019 Payment -100   3883 Jobber Payments
1211 Devin Downing 10/02/2019 Payment -135   3884 Jobber Payments
1212 Valerie  Miller Bean 10/02/2019 Payment -115   3885 Jobber Payments
1213 John  Palau 10/02/2019 Payment -500   3886 Jobber Payments
1214 Phillip Presume 10/03/2019 Payment -35   3887 Jobber Payments
1215 Marianne  Lawlor 10/03/2019 Payment -120   3888 Jobber Payments
1216 Marta Kelly 10/03/2019 Payment -106   3890 Jobber Payments
1217 LeAnne  Sevier 10/03/2019 Payment -64   3891 Jobber Payments
1218 Emily Denton 10/04/2019 Payment -50   3892 Jobber Payments
1219 Gian Carlo  Gasparin 10/04/2019 Payment -147   3893 Jobber Payments
1220 Julia  Gordon 10/04/2019 Payment -165   3894 Jobber Payments
1221 Nicole Rothstein 10/04/2019 Payment -97   3895 Jobber Payments
1222 Erin  long 10/04/2019 Payment -90   3896 Jobber Payments
1223 Lisa  Hahn 10/04/2019 Payment -240   3897 Jobber Payments
1224 Emily Denton 10/05/2019 Payment -124   3900 Jobber Payments
1225 Candice  Wilson 10/05/2019 Payment -180   3901 Jobber Payments
1226 Michelle  Garcia 10/05/2019 Payment -135   3902 Jobber Payments
1227 Nancy  Pilote 10/06/2019 Payment -168   3903 Jobber Payments
1228 Tyler  Jackson 10/07/2019 Payment -35   3905 Jobber Payments
1229 Tommie Barlow 10/07/2019 Payment -96   3906 Jobber Payments
1230 Eric Emerson 10/07/2019 Payment -273   3907 Jobber Payments
1231 David Berglund 10/07/2019 Payment -180   3908 Jobber Payments
1232 Linda  Gambrell 10/07/2019 Payment -126   3910 Jobber Payments
1233 Lora King And  Charles Crigler 10/07/2019 Payment -475   3909 Jobber Payments
1234 Melissa  Veigle 10/08/2019 Payment -180   3911 Jobber Payments
1235 Laura Aldridge 10/08/2019 Payment -120   3912 Jobber Payments
1236 Penny Weiss 10/08/2019 Payment -378   3913 Jobber Payments
1237 Cynthia  Strickland 10/09/2019 Payment -267   3914 Jobber Payments
1238 Marta Kelly 10/09/2019 Payment -112   3916 Jobber Payments
1239 Nadia Choudhury 10/09/2019 Payment -166   3917 Jobber Payments
1240 Kristine Sardisco 10/09/2019 Payment -140   3918 Jobber Payments
1241 Jim  Kasch 10/09/2019 Payment -179   3919 Jobber Payments
1242 Margaret  Jasinski 10/09/2019 Payment -148   3920 Jobber Payments
1243 Lindsay Waybright 10/10/2019 Payment -120   3922 Jobber Payments
1244 Lauren Ellen 10/10/2019 Payment -232   3924 Jobber Payments
1245 Bennet Parke 10/10/2019 Payment -110   3925 Jobber Payments
1246 Matthew Kiep 10/10/2019 Payment -35   3927 Jobber Payments
1247 Patricia Martin 10/11/2019 Payment -248   3928 Jobber Payments
1248 Emily Osburn 10/11/2019 Payment -240   3929 Jobber Payments
1249 Diana  Campbell 10/11/2019 Payment -90   3930 Jobber Payments
1250 Santiago  Flores 10/11/2019 Payment -223   3931 Jobber Payments
1251 Guianna cruz  Jimenez 10/11/2019 Payment -90   3932 Jobber Payments
1252 Bhanu  Dave 10/11/2019 Payment -118   3933 Jobber Payments
1253 Sterling  Brown 10/11/2019 Payment -90   3934 Jobber Payments
1254 Demia  Doggette 10/11/2019 Payment -209   3935 Jobber Payments
1255 Watson Realty Corp 10/11/2019 Payment -330   3936 Jobber Payments
1256 Tyler  Jackson 10/12/2019 Payment -109   3938 Jobber Payments
1257 Betty Kaplin 10/12/2019 Payment -84   3940 Jobber Payments
1258 Gracie  Alton 10/13/2019 Payment -253   3941 Jobber Payments
1259 James Benbow 10/13/2019 Payment -112   3942 Jobber Payments
1260 Kimberly  Furr-Lobin 10/14/2019 Payment -145   3943 Jobber Payments
1261 Bonnie Betz 10/14/2019 Payment -120   3944 Jobber Payments
1262 Leann Bergeson 10/14/2019 Payment -35   3945 Jobber Payments
1263 Tommie Barlow 10/14/2019 Payment -96   3946 Jobber Payments
1264 David  Welsh 10/14/2019 Payment -120   3947 Jobber Payments
1265 Caroline Malaugh 10/14/2019 Payment -129   3948 Jobber Payments
1266 Caroline Poole 10/14/2019 Payment -120   3949 Jobber Payments
1267 Jill  Esposito 10/14/2019 Payment -133   3950 Jobber Payments
1268 Frederick Marshall 10/15/2019 Payment -144   3951 Jobber Payments
1269 Ethel Montgomery 10/15/2019 Payment -155   3953 Jobber Payments
1270 Jennifer  Howell 10/15/2019 Payment -259   3954 Jobber Payments
1271 Nancy  Pilote 10/15/2019 Payment -168   3955 Jobber Payments
1272 Phillip Presume 10/16/2019 Payment -174   3939 Jobber Payments
1273 Lester Yu 10/16/2019 Payment -90   3956 Jobber Payments
1274 Amy Carr 10/16/2019 Payment -109   3959 Jobber Payments
1275 Nick Synko 10/16/2019 Payment -106   3961 Jobber Payments
1276 David Pierce 10/16/2019 Payment -100   3960 Jobber Payments
1277 Jill  Laperre 10/16/2019 Payment -270   3962 Jobber Payments
